[INFO ][2023-04-28 09:10:01][868] (EastmoneyDatacenterWebApiDataRobot) -------- <eastmoney_market_rzrq_json>(增量)下载开始 --------
[INFO ][2023-04-28 09:10:02][868] (EastmoneyDatacenterWebApiDataRobot) {共计应下载数: 2, 本次应下载数: 2, 下载失败数: 0}
[INFO ][2023-04-28 09:10:02][868] (EastmoneyDatacenterWebApiDataRobot) -------- (增量)下载结束</eastmoney_market_rzrq_json> --------
[INFO ][2023-04-28 09:10:02][868] (EastmoneyDatacenterWebApiDataRobot) -------- <eastmoney_stock_rzrq_json>(增量)下载开始 --------
[INFO ][2023-04-28 09:11:18][868] (EastmoneyDatacenterWebApiDataRobot) {共计应下载数: 3227, 本次应下载数: 3227, 下载失败数: 0}
[INFO ][2023-04-28 09:11:18][868] (EastmoneyDatacenterWebApiDataRobot) -------- (增量)下载结束</eastmoney_stock_rzrq_json> --------
[INFO ][2023-04-28 09:11:18][868] (EastmoneyDatacenterWebApiDataRobot) -------- <eastmoney_stock_hsgthdsta_json>(增量)下载开始 --------
[INFO ][2023-04-28 09:12:13][868] (EastmoneyDatacenterWebApiDataRobot) {共计应下载数: 2541, 本次应下载数: 2541, 下载失败数: 0}
[INFO ][2023-04-28 09:12:13][868] (EastmoneyDatacenterWebApiDataRobot) -------- (增量)下载结束</eastmoney_stock_hsgthdsta_json> --------
[INFO ][2023-04-28 09:12:13][868] (EastmoneyDatacenterWebApiDataRobot) -------- <eastmoney_stock_ggthdsta_json>(增量)下载开始 --------
[INFO ][2023-04-28 09:12:22][868] (EastmoneyDatacenterWebApiDataRobot) {共计应下载数: 560, 本次应下载数: 560, 下载失败数: 0}
[INFO ][2023-04-28 09:12:22][868] (EastmoneyDatacenterWebApiDataRobot) -------- (增量)下载结束</eastmoney_stock_ggthdsta_json> --------
[INFO ][2023-04-28 09:12:22][868] (DiffWindMain) BOD数据源下载状态: {sina_stock_corp_info=-9999, sina_swhy2_stock=-9999, sina_stock_xq_info=-9999, netease_stock_day=-9999, netease_stock_zcfzb_json=-9999, netease_stock_lrb_json=-9999, netease_stock_xjllb_json=-9999, netease_stock_zycwzb_json=-9999, netease_stock_fhpg=-9999, netease_stock_cjmx=-9999, netease_stock_day_html=-9999, sohu_stock_day_1y=-9999, swsindex_hangye_day=-9999, xueqiu_stock_shareschg_json=-9999, xueqiu_stock_main_indicator_json=-9999, xueqiu_stock_income_statement_json=-9999, xueqiu_stock_balance_sheet_json=-9999, xueqiu_stock_cashflow_statement_json=-9999, xueqiu_stock_bonus_json=-9999, eastmoney_market_rzrq_json=0, eastmoney_market_hsgthis_json=0, eastmoney_stock_rzrq_json=0, eastmoney_stock_hsgthdsta_json=0, eastmoney_stock_ggthdsta_json=0, eastmoney_stock_hsgtcjb_json=0, eastmoney_stock_gpzy_json=-9999, eastmoney_stock_dzjy_daystats_json=-9999, eastmoney_stock_gdhs_json=-9999, eastmoney_stock_fhsp_json=-9999, eastmoney_stock_capitalflow_json=-9999, ths_stock_bonus_json=-9999}
[INFO ][2023-04-28 09:15:00][936] (DiffWindMain) BOD数据源下载状态: {sina_stock_corp_info=-9999, sina_swhy2_stock=-9999, sina_stock_xq_info=-9999, netease_stock_day=-9999, netease_stock_zcfzb_json=-9999, netease_stock_lrb_json=-9999, netease_stock_xjllb_json=-9999, netease_stock_zycwzb_json=-9999, netease_stock_fhpg=-9999, netease_stock_cjmx=-9999, netease_stock_day_html=-9999, sohu_stock_day_1y=-9999, swsindex_hangye_day=-9999, xueqiu_stock_shareschg_json=-9999, xueqiu_stock_main_indicator_json=-9999, xueqiu_stock_income_statement_json=-9999, xueqiu_stock_balance_sheet_json=-9999, xueqiu_stock_cashflow_statement_json=-9999, xueqiu_stock_bonus_json=-9999, eastmoney_market_rzrq_json=0, eastmoney_market_hsgthis_json=0, eastmoney_stock_rzrq_json=0, eastmoney_stock_hsgthdsta_json=0, eastmoney_stock_ggthdsta_json=0, eastmoney_stock_hsgtcjb_json=0, eastmoney_stock_gpzy_json=-9999, eastmoney_stock_dzjy_daystats_json=-9999, eastmoney_stock_gdhs_json=-9999, eastmoney_stock_fhsp_json=-9999, eastmoney_stock_capitalflow_json=-9999, ths_stock_bonus_json=-9999}
[INFO ][2023-04-28 09:20:00][980] (DiffWindMain) BOD数据源下载状态: {sina_stock_corp_info=-9999, sina_swhy2_stock=-9999, sina_stock_xq_info=-9999, netease_stock_day=-9999, netease_stock_zcfzb_json=-9999, netease_stock_lrb_json=-9999, netease_stock_xjllb_json=-9999, netease_stock_zycwzb_json=-9999, netease_stock_fhpg=-9999, netease_stock_cjmx=-9999, netease_stock_day_html=-9999, sohu_stock_day_1y=-9999, swsindex_hangye_day=-9999, xueqiu_stock_shareschg_json=-9999, xueqiu_stock_main_indicator_json=-9999, xueqiu_stock_income_statement_json=-9999, xueqiu_stock_balance_sheet_json=-9999, xueqiu_stock_cashflow_statement_json=-9999, xueqiu_stock_bonus_json=-9999, eastmoney_market_rzrq_json=0, eastmoney_market_hsgthis_json=0, eastmoney_stock_rzrq_json=0, eastmoney_stock_hsgthdsta_json=0, eastmoney_stock_ggthdsta_json=0, eastmoney_stock_hsgtcjb_json=0, eastmoney_stock_gpzy_json=-9999, eastmoney_stock_dzjy_daystats_json=-9999, eastmoney_stock_gdhs_json=-9999, eastmoney_stock_fhsp_json=-9999, eastmoney_stock_capitalflow_json=-9999, ths_stock_bonus_json=-9999}
[INFO ][2023-04-28 12:00:00][2020] (EastmoneyDatacenterWebApiDataRobot) -------- <eastmoney_stock_gdhs_json>(增量)下载开始 --------
[INFO ][2023-04-28 12:02:18][2020] (EastmoneyDatacenterWebApiDataRobot) {共计应下载数: 4944, 本次应下载数: 4944, 下载失败数: 0}
[INFO ][2023-04-28 12:02:18][2020] (EastmoneyDatacenterWebApiDataRobot) -------- (增量)下载结束</eastmoney_stock_gdhs_json> --------
[INFO ][2023-04-28 12:02:18][2020] (EastmoneyDatacenterWebApiDataRobot) -------- <eastmoney_stock_gpzy_json>(增量)下载开始 --------
[INFO ][2023-04-28 12:04:48][2020] (EastmoneyDatacenterWebApiDataRobot) {共计应下载数: 4944, 本次应下载数: 4944, 下载失败数: 0}
[INFO ][2023-04-28 12:04:48][2020] (EastmoneyDatacenterWebApiDataRobot) -------- (增量)下载结束</eastmoney_stock_gpzy_json> --------
[INFO ][2023-04-28 12:04:48][2020] (SinaStockXQDataRobot) -------- <sina>(全量)除权数据下载开始 --------
[INFO ][2023-04-28 12:09:21][2020] (SinaStockXQDataRobot) {股票数: 4944, 本次应下载数: 238, 下载失败数: 0}
[INFO ][2023-04-28 12:09:21][2020] (SinaStockXQDataRobot) -------- 除权数据下载结束</sina> --------
[INFO ][2023-04-28 12:09:21][2020] (ThsStockBonusDataRobot) -------- <ths_stock_bonus_json>(全量)下载开始 --------
[INFO ][2023-04-28 12:09:34][2020] (ThsStockBonusDataRobot) {共计应下载数: 4944, 本次应下载数: 92, 下载失败数: 74}
[INFO ][2023-04-28 12:09:34][2020] (ThsStockBonusDataRobot) -------- (全量)下载结束</ths_stock_bonus_json> --------
[INFO ][2023-04-28 12:09:34][2020] (ThsStockBonusDataRobot) -------- <ths_stock_bonus_json>(全量)下载开始 --------
[INFO ][2023-04-28 12:09:44][2020] (ThsStockBonusDataRobot) {共计应下载数: 4944, 本次应下载数: 80, 下载失败数: 74}
[INFO ][2023-04-28 12:09:44][2020] (ThsStockBonusDataRobot) -------- (全量)下载结束</ths_stock_bonus_json> --------
[INFO ][2023-04-28 12:09:44][2020] (ThsStockBonusDataRobot) -------- <ths_stock_bonus_json>(全量)下载开始 --------
[INFO ][2023-04-28 12:09:55][2020] (ThsStockBonusDataRobot) {共计应下载数: 4944, 本次应下载数: 80, 下载失败数: 74}
[INFO ][2023-04-28 12:09:55][2020] (ThsStockBonusDataRobot) -------- (全量)下载结束</ths_stock_bonus_json> --------
[INFO ][2023-04-28 12:09:55][2020] (ThsStockBonusDataRobot) -------- <ths_stock_bonus_json>(全量)下载开始 --------
[INFO ][2023-04-28 12:10:06][2020] (ThsStockBonusDataRobot) {共计应下载数: 4944, 本次应下载数: 80, 下载失败数: 74}
[INFO ][2023-04-28 12:10:06][2020] (ThsStockBonusDataRobot) -------- (全量)下载结束</ths_stock_bonus_json> --------
[INFO ][2023-04-28 12:10:06][2020] (ThsStockBonusDataRobot) -------- <ths_stock_bonus_json>(全量)下载开始 --------
[INFO ][2023-04-28 12:10:17][2020] (ThsStockBonusDataRobot) {共计应下载数: 4944, 本次应下载数: 80, 下载失败数: 74}
[INFO ][2023-04-28 12:10:17][2020] (ThsStockBonusDataRobot) -------- (全量)下载结束</ths_stock_bonus_json> --------
[INFO ][2023-04-28 17:00:00][3975] (SohuStockDayDataRobot) -------- <sohu>下载日线数据开始 --------
[INFO ][2023-04-28 17:03:25][3975] (SohuStockDayDataRobot) {股票数: 4944, 本次应下载数: 4947, 更新失败数: 3}
[INFO ][2023-04-28 17:03:25][3975] (SohuStockDayDataRobot) -------- 下载日线数据结束</sohu> --------
[INFO ][2023-04-28 17:03:25][3975] (EastmoneyDatacenterWebApiDataRobot) -------- <eastmoney_market_rzrq_json>(增量)下载开始 --------
[INFO ][2023-04-28 17:03:26][3975] (EastmoneyDatacenterWebApiDataRobot) {共计应下载数: 2, 本次应下载数: 2, 下载失败数: 0}
[INFO ][2023-04-28 17:03:26][3975] (EastmoneyDatacenterWebApiDataRobot) -------- (增量)下载结束</eastmoney_market_rzrq_json> --------
[INFO ][2023-04-28 17:03:26][3975] (EastmoneyDatacenterWebApiDataRobot) -------- <eastmoney_market_hsgthis_json>(增量)下载开始 --------
[INFO ][2023-04-28 17:03:26][3975] (EastmoneyDatacenterWebApiDataRobot) {共计应下载数: 4, 本次应下载数: 4, 下载失败数: 0}
[INFO ][2023-04-28 17:03:26][3975] (EastmoneyDatacenterWebApiDataRobot) -------- (增量)下载结束</eastmoney_market_hsgthis_json> --------
[INFO ][2023-04-28 17:03:26][3975] (EastmoneyDatacenterWebApiDataRobot) -------- <eastmoney_stock_rzrq_json>(增量)下载开始 --------
[INFO ][2023-04-28 17:04:54][3975] (EastmoneyDatacenterWebApiDataRobot) {共计应下载数: 3227, 本次应下载数: 3227, 下载失败数: 0}
[INFO ][2023-04-28 17:04:54][3975] (EastmoneyDatacenterWebApiDataRobot) -------- (增量)下载结束</eastmoney_stock_rzrq_json> --------
[INFO ][2023-04-28 17:04:54][3975] (EastmoneyDatacenterWebApiDataRobot) -------- <eastmoney_stock_hsgthdsta_json>(增量)下载开始 --------
[INFO ][2023-04-28 17:06:23][3975] (EastmoneyDatacenterWebApiDataRobot) {共计应下载数: 2541, 本次应下载数: 2541, 下载失败数: 0}
[INFO ][2023-04-28 17:06:23][3975] (EastmoneyDatacenterWebApiDataRobot) -------- (增量)下载结束</eastmoney_stock_hsgthdsta_json> --------
[INFO ][2023-04-28 17:06:23][3975] (EastmoneyDatacenterWebApiDataRobot) -------- <eastmoney_stock_hsgtcjb_json>(增量)下载开始 --------
[INFO ][2023-04-28 17:07:33][3975] (EastmoneyDatacenterWebApiDataRobot) {共计应下载数: 2541, 本次应下载数: 2541, 下载失败数: 0}
[INFO ][2023-04-28 17:07:33][3975] (EastmoneyDatacenterWebApiDataRobot) -------- (增量)下载结束</eastmoney_stock_hsgtcjb_json> --------
[INFO ][2023-04-28 17:07:33][3975] (EastmoneyDatacenterWebApiDataRobot) -------- <eastmoney_stock_ggthdsta_json>(增量)下载开始 --------
[INFO ][2023-04-28 17:07:45][3975] (EastmoneyDatacenterWebApiDataRobot) {共计应下载数: 560, 本次应下载数: 560, 下载失败数: 0}
[INFO ][2023-04-28 17:07:45][3975] (EastmoneyDatacenterWebApiDataRobot) -------- (增量)下载结束</eastmoney_stock_ggthdsta_json> --------
[INFO ][2023-04-28 17:07:45][3975] (EastmoneyDatacenterWebApiDataRobot) -------- <eastmoney_stock_dzjy_daystats_json>(增量)下载开始 --------
[INFO ][2023-04-28 17:09:48][3975] (EastmoneyDatacenterWebApiDataRobot) {共计应下载数: 4944, 本次应下载数: 4944, 下载失败数: 0}
[INFO ][2023-04-28 17:09:48][3975] (EastmoneyDatacenterWebApiDataRobot) -------- (增量)下载结束</eastmoney_stock_dzjy_daystats_json> --------
[INFO ][2023-04-28 17:09:48][3975] (EastmoneyStockCapitalFlowDataRobot) -------- <eastmoney>(增量)下载资金流向历史数据开始 --------
[INFO ][2023-04-28 17:11:48][3975] (EastmoneyStockCapitalFlowDataRobot) 共计应下载数: 4945, 本次应下载数: 4945, 下载失败数: 0}
[INFO ][2023-04-28 17:11:48][3975] (EastmoneyStockCapitalFlowDataRobot) -------- 下载资金流向历史数据结束</eastmoney> --------
[INFO ][2023-04-28 17:11:48][3975] (SwsindexDayDataRobot) -------- <swsindex>(增量)下载申万行业日线数据开始 --------
[INFO ][2023-04-28 17:11:48][3975] (SwsindexDayDataRobot) -------- 下载申万行业日线数据结束</swsindex> --------
[INFO ][2023-04-28 17:11:48][3975] (SohuStockDayDataRobot) -------- <sohu>下载日线数据开始 --------
[INFO ][2023-04-28 17:12:03][3975] (SohuStockDayDataRobot) {股票数: 4944, 本次应下载数: 251, 更新失败数: 0}
[INFO ][2023-04-28 17:12:03][3975] (SohuStockDayDataRobot) -------- 下载日线数据结束</sohu> --------
[INFO ][2023-04-28 17:12:03][3975] (DiffWindMain$4) EOD数据源下载状态: {sina_stock_corp_info=-9999, sina_swhy2_stock=-9999, sina_stock_xq_info=-9999, netease_stock_day=-9999, netease_stock_zcfzb_json=-9999, netease_stock_lrb_json=-9999, netease_stock_xjllb_json=-9999, netease_stock_zycwzb_json=-9999, netease_stock_fhpg=-9999, netease_stock_cjmx=-9999, netease_stock_day_html=-9999, sohu_stock_day_1y=0, swsindex_hangye_day=0, xueqiu_stock_shareschg_json=-9999, xueqiu_stock_main_indicator_json=-9999, xueqiu_stock_income_statement_json=-9999, xueqiu_stock_balance_sheet_json=-9999, xueqiu_stock_cashflow_statement_json=-9999, xueqiu_stock_bonus_json=-9999, eastmoney_market_rzrq_json=0, eastmoney_market_hsgthis_json=0, eastmoney_stock_rzrq_json=0, eastmoney_stock_hsgthdsta_json=0, eastmoney_stock_ggthdsta_json=0, eastmoney_stock_hsgtcjb_json=0, eastmoney_stock_gpzy_json=-9999, eastmoney_stock_dzjy_daystats_json=0, eastmoney_stock_gdhs_json=-9999, eastmoney_stock_fhsp_json=-9999, eastmoney_stock_capitalflow_json=0, ths_stock_bonus_json=-9999}
[INFO ][2023-04-28 17:12:03][3975] (SourceDataETL) -------- <sohu>转存sohu日线数据至中间表开始 --------
[INFO ][2023-04-28 17:12:20][3975] (SourceDataETL) -------- 转存sohu日线数据至中间表结束</sohu> --------
[INFO ][2023-04-28 17:12:20][3975] (DayDataFQ) -------- <dw>日线数据前复权开始 --------
[INFO ][2023-04-28 17:12:57][3975] (DayDataFQ) -------- 日线数据前复权结束</dw> --------
[INFO ][2023-04-28 20:00:00][5175] (EastmoneyDatacenterWebApiDataRobot) -------- <eastmoney_market_rzrq_json>(增量)下载开始 --------
[INFO ][2023-04-28 20:00:00][5175] (EastmoneyDatacenterWebApiDataRobot) {共计应下载数: 2, 本次应下载数: 2, 下载失败数: 0}
[INFO ][2023-04-28 20:00:00][5175] (EastmoneyDatacenterWebApiDataRobot) -------- (增量)下载结束</eastmoney_market_rzrq_json> --------
[INFO ][2023-04-28 20:00:00][5175] (EastmoneyDatacenterWebApiDataRobot) -------- <eastmoney_market_hsgthis_json>(增量)下载开始 --------
[INFO ][2023-04-28 20:00:00][5175] (EastmoneyDatacenterWebApiDataRobot) {共计应下载数: 4, 本次应下载数: 4, 下载失败数: 0}
[INFO ][2023-04-28 20:00:00][5175] (EastmoneyDatacenterWebApiDataRobot) -------- (增量)下载结束</eastmoney_market_hsgthis_json> --------
[INFO ][2023-04-28 20:00:00][5175] (EastmoneyDatacenterWebApiDataRobot) -------- <eastmoney_stock_rzrq_json>(增量)下载开始 --------
[INFO ][2023-04-28 20:01:40][5175] (EastmoneyDatacenterWebApiDataRobot) {共计应下载数: 3224, 本次应下载数: 3224, 下载失败数: 0}
[INFO ][2023-04-28 20:01:40][5175] (EastmoneyDatacenterWebApiDataRobot) -------- (增量)下载结束</eastmoney_stock_rzrq_json> --------
[INFO ][2023-04-28 20:01:40][5175] (EastmoneyDatacenterWebApiDataRobot) -------- <eastmoney_stock_hsgthdsta_json>(增量)下载开始 --------
[INFO ][2023-04-28 20:03:38][5175] (EastmoneyDatacenterWebApiDataRobot) {共计应下载数: 2541, 本次应下载数: 2541, 下载失败数: 1}
[INFO ][2023-04-28 20:03:38][5175] (EastmoneyDatacenterWebApiDataRobot) -------- (增量)下载结束</eastmoney_stock_hsgthdsta_json> --------
[INFO ][2023-04-28 20:03:38][5175] (EastmoneyDatacenterWebApiDataRobot) -------- <eastmoney_stock_hsgtcjb_json>(增量)下载开始 --------
[INFO ][2023-04-28 20:06:40][5175] (EastmoneyDatacenterWebApiDataRobot) {共计应下载数: 2541, 本次应下载数: 2541, 下载失败数: 6}
[INFO ][2023-04-28 20:06:40][5175] (EastmoneyDatacenterWebApiDataRobot) -------- (增量)下载结束</eastmoney_stock_hsgtcjb_json> --------
[INFO ][2023-04-28 20:06:40][5175] (EastmoneyDatacenterWebApiDataRobot) -------- <eastmoney_stock_ggthdsta_json>(增量)下载开始 --------
[INFO ][2023-04-28 20:07:35][5175] (EastmoneyDatacenterWebApiDataRobot) {共计应下载数: 560, 本次应下载数: 560, 下载失败数: 1}
[INFO ][2023-04-28 20:07:35][5175] (EastmoneyDatacenterWebApiDataRobot) -------- (增量)下载结束</eastmoney_stock_ggthdsta_json> --------
[INFO ][2023-04-28 20:07:35][5175] (SwsindexDayDataRobot) -------- <swsindex>(增量)下载申万行业日线数据开始 --------
[INFO ][2023-04-28 20:07:35][5175] (SwsindexDayDataRobot) -------- 下载申万行业日线数据结束</swsindex> --------
[INFO ][2023-04-28 20:07:35][5175] (EastmoneyDatacenterWebApiDataRobot) -------- <eastmoney_stock_hsgthdsta_json>(增量)下载开始 --------
[INFO ][2023-04-28 20:09:32][5175] (EastmoneyDatacenterWebApiDataRobot) {共计应下载数: 2541, 本次应下载数: 2541, 下载失败数: 2}
[INFO ][2023-04-28 20:09:32][5175] (EastmoneyDatacenterWebApiDataRobot) -------- (增量)下载结束</eastmoney_stock_hsgthdsta_json> --------
[INFO ][2023-04-28 20:09:32][5175] (EastmoneyDatacenterWebApiDataRobot) -------- <eastmoney_stock_hsgtcjb_json>(增量)下载开始 --------
[INFO ][2023-04-28 20:10:46][5175] (EastmoneyDatacenterWebApiDataRobot) {共计应下载数: 2541, 本次应下载数: 2521, 下载失败数: 1}
[INFO ][2023-04-28 20:10:46][5175] (EastmoneyDatacenterWebApiDataRobot) -------- (增量)下载结束</eastmoney_stock_hsgtcjb_json> --------
[INFO ][2023-04-28 20:10:46][5175] (EastmoneyDatacenterWebApiDataRobot) -------- <eastmoney_stock_ggthdsta_json>(增量)下载开始 --------
[INFO ][2023-04-28 20:11:24][5175] (EastmoneyDatacenterWebApiDataRobot) {共计应下载数: 560, 本次应下载数: 560, 下载失败数: 0}
[INFO ][2023-04-28 20:11:24][5175] (EastmoneyDatacenterWebApiDataRobot) -------- (增量)下载结束</eastmoney_stock_ggthdsta_json> --------
[INFO ][2023-04-28 20:11:24][5175] (EastmoneyDatacenterWebApiDataRobot) -------- <eastmoney_stock_hsgthdsta_json>(增量)下载开始 --------
[INFO ][2023-04-28 20:13:54][5175] (EastmoneyDatacenterWebApiDataRobot) {共计应下载数: 2541, 本次应下载数: 2541, 下载失败数: 4}
[INFO ][2023-04-28 20:13:54][5175] (EastmoneyDatacenterWebApiDataRobot) -------- (增量)下载结束</eastmoney_stock_hsgthdsta_json> --------
[INFO ][2023-04-28 20:13:54][5175] (EastmoneyDatacenterWebApiDataRobot) -------- <eastmoney_stock_hsgtcjb_json>(增量)下载开始 --------
[INFO ][2023-04-28 20:16:04][5175] (EastmoneyDatacenterWebApiDataRobot) {共计应下载数: 2541, 本次应下载数: 2521, 下载失败数: 2}
[INFO ][2023-04-28 20:16:04][5175] (EastmoneyDatacenterWebApiDataRobot) -------- (增量)下载结束</eastmoney_stock_hsgtcjb_json> --------
[INFO ][2023-04-28 20:16:04][5175] (EastmoneyDatacenterWebApiDataRobot) -------- <eastmoney_stock_hsgthdsta_json>(增量)下载开始 --------
[INFO ][2023-04-28 20:18:36][5175] (EastmoneyDatacenterWebApiDataRobot) {共计应下载数: 2541, 本次应下载数: 2541, 下载失败数: 3}
[INFO ][2023-04-28 20:18:36][5175] (EastmoneyDatacenterWebApiDataRobot) -------- (增量)下载结束</eastmoney_stock_hsgthdsta_json> --------
[INFO ][2023-04-28 20:18:36][5175] (EastmoneyDatacenterWebApiDataRobot) -------- <eastmoney_stock_hsgtcjb_json>(增量)下载开始 --------
[INFO ][2023-04-28 20:19:59][5175] (EastmoneyDatacenterWebApiDataRobot) {共计应下载数: 2541, 本次应下载数: 2521, 下载失败数: 1}
[INFO ][2023-04-28 20:19:59][5175] (EastmoneyDatacenterWebApiDataRobot) -------- (增量)下载结束</eastmoney_stock_hsgtcjb_json> --------
[INFO ][2023-04-28 20:19:59][5175] (EastmoneyDatacenterWebApiDataRobot) -------- <eastmoney_stock_hsgthdsta_json>(增量)下载开始 --------
[INFO ][2023-04-28 20:21:34][5175] (EastmoneyDatacenterWebApiDataRobot) {共计应下载数: 2541, 本次应下载数: 2541, 下载失败数: 1}
[INFO ][2023-04-28 20:21:34][5175] (EastmoneyDatacenterWebApiDataRobot) -------- (增量)下载结束</eastmoney_stock_hsgthdsta_json> --------
[INFO ][2023-04-28 20:21:34][5175] (EastmoneyDatacenterWebApiDataRobot) -------- <eastmoney_stock_hsgtcjb_json>(增量)下载开始 --------
[INFO ][2023-04-28 20:22:50][5175] (EastmoneyDatacenterWebApiDataRobot) {共计应下载数: 2541, 本次应下载数: 2521, 下载失败数: 0}
[INFO ][2023-04-28 20:22:50][5175] (EastmoneyDatacenterWebApiDataRobot) -------- (增量)下载结束</eastmoney_stock_hsgtcjb_json> --------
[INFO ][2023-04-28 20:22:50][5175] (DiffWindMain$4) EOD数据源下载状态: {sina_stock_corp_info=-9999, sina_swhy2_stock=-9999, sina_stock_xq_info=-9999, netease_stock_day=-9999, netease_stock_zcfzb_json=-9999, netease_stock_lrb_json=-9999, netease_stock_xjllb_json=-9999, netease_stock_zycwzb_json=-9999, netease_stock_fhpg=-9999, netease_stock_cjmx=-9999, netease_stock_day_html=-9999, sohu_stock_day_1y=0, swsindex_hangye_day=0, xueqiu_stock_shareschg_json=-9999, xueqiu_stock_main_indicator_json=-9999, xueqiu_stock_income_statement_json=-9999, xueqiu_stock_balance_sheet_json=-9999, xueqiu_stock_cashflow_statement_json=-9999, xueqiu_stock_bonus_json=-9999, eastmoney_market_rzrq_json=0, eastmoney_market_hsgthis_json=0, eastmoney_stock_rzrq_json=0, eastmoney_stock_hsgthdsta_json=1, eastmoney_stock_ggthdsta_json=0, eastmoney_stock_hsgtcjb_json=0, eastmoney_stock_gpzy_json=-9999, eastmoney_stock_dzjy_daystats_json=0, eastmoney_stock_gdhs_json=-9999, eastmoney_stock_fhsp_json=-9999, eastmoney_stock_capitalflow_json=0, ths_stock_bonus_json=-9999}
[INFO ][2023-04-28 20:22:50][5175] (SourceDataETL) -------- <sohu>转存sohu日线数据至中间表开始 --------
[INFO ][2023-04-28 20:23:05][5175] (SourceDataETL) -------- 转存sohu日线数据至中间表结束</sohu> --------
[INFO ][2023-04-28 20:23:05][5175] (DayDataFQ) -------- <dw>日线数据前复权开始 --------
[INFO ][2023-04-28 20:23:44][5175] (DayDataFQ) -------- 日线数据前复权结束</dw> --------
