[INFO ][2023-08-01 09:10:03][868] (EastmoneyDatacenterWebApiDataRobot) -------- <eastmoney_market_rzrq_json>(增量)下载开始 --------
[INFO ][2023-08-01 09:10:04][868] (EastmoneyDatacenterWebApiDataRobot) {共计应下载数: 2, 本次应下载数: 2, 下载失败数: 0}
[INFO ][2023-08-01 09:10:04][868] (EastmoneyDatacenterWebApiDataRobot) -------- (增量)下载结束</eastmoney_market_rzrq_json> --------
[INFO ][2023-08-01 09:10:04][868] (EastmoneyDatacenterWebApiDataRobot) -------- <eastmoney_stock_rzrq_json>(增量)下载开始 --------
[INFO ][2023-08-01 09:11:28][868] (EastmoneyDatacenterWebApiDataRobot) {共计应下载数: 3320, 本次应下载数: 3320, 下载失败数: 0}
[INFO ][2023-08-01 09:11:28][868] (EastmoneyDatacenterWebApiDataRobot) -------- (增量)下载结束</eastmoney_stock_rzrq_json> --------
[INFO ][2023-08-01 09:11:28][868] (EastmoneyDatacenterWebApiDataRobot) -------- <eastmoney_stock_hsgthdsta_json>(增量)下载开始 --------
[INFO ][2023-08-01 09:12:34][868] (EastmoneyDatacenterWebApiDataRobot) {共计应下载数: 2710, 本次应下载数: 2710, 下载失败数: 0}
[INFO ][2023-08-01 09:12:34][868] (EastmoneyDatacenterWebApiDataRobot) -------- (增量)下载结束</eastmoney_stock_hsgthdsta_json> --------
[INFO ][2023-08-01 09:12:34][868] (EastmoneyDatacenterWebApiDataRobot) -------- <eastmoney_stock_ggthdsta_json>(增量)下载开始 --------
[INFO ][2023-08-01 09:12:50][868] (EastmoneyDatacenterWebApiDataRobot) {共计应下载数: 557, 本次应下载数: 557, 下载失败数: 0}
[INFO ][2023-08-01 09:12:50][868] (EastmoneyDatacenterWebApiDataRobot) -------- (增量)下载结束</eastmoney_stock_ggthdsta_json> --------
[INFO ][2023-08-01 09:12:50][868] (DiffWindMain) BOD数据源下载状态: {sina_stock_corp_info=-9999, sina_swhy2_stock=-9999, sina_stock_xq_info=-9999, netease_stock_day=-9999, netease_stock_zcfzb_json=-9999, netease_stock_lrb_json=-9999, netease_stock_xjllb_json=-9999, netease_stock_zycwzb_json=-9999, netease_stock_fhpg=-9999, netease_stock_cjmx=-9999, netease_stock_day_html=-9999, sohu_stock_day_1y=-9999, swsindex_hangye_day=-9999, xueqiu_stock_shareschg_json=-9999, xueqiu_stock_main_indicator_json=-9999, xueqiu_stock_income_statement_json=-9999, xueqiu_stock_balance_sheet_json=-9999, xueqiu_stock_cashflow_statement_json=-9999, xueqiu_stock_bonus_json=-9999, eastmoney_market_rzrq_json=0, eastmoney_market_hsgthis_json=0, eastmoney_stock_rzrq_json=0, eastmoney_stock_hsgthdsta_json=0, eastmoney_stock_ggthdsta_json=0, eastmoney_stock_hsgtcjb_json=0, eastmoney_stock_gpzy_json=-9999, eastmoney_stock_dzjy_daystats_json=-9999, eastmoney_stock_gdhs_json=-9999, eastmoney_stock_fhsp_json=-9999, eastmoney_stock_capitalflow_json=-9999, ths_stock_bonus_json=-9999}
[INFO ][2023-08-01 09:15:00][936] (DiffWindMain) BOD数据源下载状态: {sina_stock_corp_info=-9999, sina_swhy2_stock=-9999, sina_stock_xq_info=-9999, netease_stock_day=-9999, netease_stock_zcfzb_json=-9999, netease_stock_lrb_json=-9999, netease_stock_xjllb_json=-9999, netease_stock_zycwzb_json=-9999, netease_stock_fhpg=-9999, netease_stock_cjmx=-9999, netease_stock_day_html=-9999, sohu_stock_day_1y=-9999, swsindex_hangye_day=-9999, xueqiu_stock_shareschg_json=-9999, xueqiu_stock_main_indicator_json=-9999, xueqiu_stock_income_statement_json=-9999, xueqiu_stock_balance_sheet_json=-9999, xueqiu_stock_cashflow_statement_json=-9999, xueqiu_stock_bonus_json=-9999, eastmoney_market_rzrq_json=0, eastmoney_market_hsgthis_json=0, eastmoney_stock_rzrq_json=0, eastmoney_stock_hsgthdsta_json=0, eastmoney_stock_ggthdsta_json=0, eastmoney_stock_hsgtcjb_json=0, eastmoney_stock_gpzy_json=-9999, eastmoney_stock_dzjy_daystats_json=-9999, eastmoney_stock_gdhs_json=-9999, eastmoney_stock_fhsp_json=-9999, eastmoney_stock_capitalflow_json=-9999, ths_stock_bonus_json=-9999}
[INFO ][2023-08-01 09:20:00][982] (DiffWindMain) BOD数据源下载状态: {sina_stock_corp_info=-9999, sina_swhy2_stock=-9999, sina_stock_xq_info=-9999, netease_stock_day=-9999, netease_stock_zcfzb_json=-9999, netease_stock_lrb_json=-9999, netease_stock_xjllb_json=-9999, netease_stock_zycwzb_json=-9999, netease_stock_fhpg=-9999, netease_stock_cjmx=-9999, netease_stock_day_html=-9999, sohu_stock_day_1y=-9999, swsindex_hangye_day=-9999, xueqiu_stock_shareschg_json=-9999, xueqiu_stock_main_indicator_json=-9999, xueqiu_stock_income_statement_json=-9999, xueqiu_stock_balance_sheet_json=-9999, xueqiu_stock_cashflow_statement_json=-9999, xueqiu_stock_bonus_json=-9999, eastmoney_market_rzrq_json=0, eastmoney_market_hsgthis_json=0, eastmoney_stock_rzrq_json=0, eastmoney_stock_hsgthdsta_json=0, eastmoney_stock_ggthdsta_json=0, eastmoney_stock_hsgtcjb_json=0, eastmoney_stock_gpzy_json=-9999, eastmoney_stock_dzjy_daystats_json=-9999, eastmoney_stock_gdhs_json=-9999, eastmoney_stock_fhsp_json=-9999, eastmoney_stock_capitalflow_json=-9999, ths_stock_bonus_json=-9999}
[INFO ][2023-08-01 12:00:00][2024] (EastmoneyDatacenterWebApiDataRobot) -------- <eastmoney_stock_gdhs_json>(增量)下载开始 --------
[INFO ][2023-08-01 12:01:49][2024] (EastmoneyDatacenterWebApiDataRobot) {共计应下载数: 4944, 本次应下载数: 4944, 下载失败数: 0}
[INFO ][2023-08-01 12:01:49][2024] (EastmoneyDatacenterWebApiDataRobot) -------- (增量)下载结束</eastmoney_stock_gdhs_json> --------
[INFO ][2023-08-01 12:01:49][2024] (EastmoneyDatacenterWebApiDataRobot) -------- <eastmoney_stock_gpzy_json>(增量)下载开始 --------
[INFO ][2023-08-01 12:04:36][2024] (EastmoneyDatacenterWebApiDataRobot) {共计应下载数: 4944, 本次应下载数: 4944, 下载失败数: 0}
[INFO ][2023-08-01 12:04:36][2024] (EastmoneyDatacenterWebApiDataRobot) -------- (增量)下载结束</eastmoney_stock_gpzy_json> --------
[INFO ][2023-08-01 12:04:36][2024] (SinaStockXQDataRobot) -------- <sina>(全量)除权数据下载开始 --------
[INFO ][2023-08-01 12:09:32][2024] (SinaStockXQDataRobot) {股票数: 4944, 本次应下载数: 256, 下载失败数: 0}
[INFO ][2023-08-01 12:09:32][2024] (SinaStockXQDataRobot) -------- 除权数据下载结束</sina> --------
[INFO ][2023-08-01 12:09:32][2024] (ThsStockBonusDataRobot) -------- <ths_stock_bonus_json>(全量)下载开始 --------
[INFO ][2023-08-01 12:09:50][2024] (ThsStockBonusDataRobot) {共计应下载数: 4944, 本次应下载数: 78, 下载失败数: 75}
[INFO ][2023-08-01 12:09:50][2024] (ThsStockBonusDataRobot) -------- (全量)下载结束</ths_stock_bonus_json> --------
[INFO ][2023-08-01 12:09:50][2024] (ThsStockBonusDataRobot) -------- <ths_stock_bonus_json>(全量)下载开始 --------
[INFO ][2023-08-01 12:10:01][2024] (ThsStockBonusDataRobot) {共计应下载数: 4944, 本次应下载数: 78, 下载失败数: 75}
[INFO ][2023-08-01 12:10:01][2024] (ThsStockBonusDataRobot) -------- (全量)下载结束</ths_stock_bonus_json> --------
[INFO ][2023-08-01 12:10:01][2024] (ThsStockBonusDataRobot) -------- <ths_stock_bonus_json>(全量)下载开始 --------
[INFO ][2023-08-01 12:10:12][2024] (ThsStockBonusDataRobot) {共计应下载数: 4944, 本次应下载数: 78, 下载失败数: 75}
[INFO ][2023-08-01 12:10:12][2024] (ThsStockBonusDataRobot) -------- (全量)下载结束</ths_stock_bonus_json> --------
[INFO ][2023-08-01 12:10:12][2024] (ThsStockBonusDataRobot) -------- <ths_stock_bonus_json>(全量)下载开始 --------
[INFO ][2023-08-01 12:10:23][2024] (ThsStockBonusDataRobot) {共计应下载数: 4944, 本次应下载数: 78, 下载失败数: 75}
[INFO ][2023-08-01 12:10:23][2024] (ThsStockBonusDataRobot) -------- (全量)下载结束</ths_stock_bonus_json> --------
[INFO ][2023-08-01 12:10:23][2024] (ThsStockBonusDataRobot) -------- <ths_stock_bonus_json>(全量)下载开始 --------
[INFO ][2023-08-01 12:10:33][2024] (ThsStockBonusDataRobot) {共计应下载数: 4944, 本次应下载数: 78, 下载失败数: 75}
[INFO ][2023-08-01 12:10:33][2024] (ThsStockBonusDataRobot) -------- (全量)下载结束</ths_stock_bonus_json> --------
[INFO ][2023-08-01 17:00:00][3976] (SohuStockDayDataRobot) -------- <sohu>下载日线数据开始 --------
[INFO ][2023-08-01 17:04:03][3976] (SohuStockDayDataRobot) {股票数: 4944, 本次应下载数: 4947, 更新失败数: 10}
[INFO ][2023-08-01 17:04:03][3976] (SohuStockDayDataRobot) -------- 下载日线数据结束</sohu> --------
[INFO ][2023-08-01 17:04:03][3976] (EastmoneyDatacenterWebApiDataRobot) -------- <eastmoney_market_rzrq_json>(增量)下载开始 --------
[INFO ][2023-08-01 17:04:03][3976] (EastmoneyDatacenterWebApiDataRobot) {共计应下载数: 2, 本次应下载数: 2, 下载失败数: 0}
[INFO ][2023-08-01 17:04:03][3976] (EastmoneyDatacenterWebApiDataRobot) -------- (增量)下载结束</eastmoney_market_rzrq_json> --------
[INFO ][2023-08-01 17:04:03][3976] (EastmoneyDatacenterWebApiDataRobot) -------- <eastmoney_market_hsgthis_json>(增量)下载开始 --------
[INFO ][2023-08-01 17:04:03][3976] (EastmoneyDatacenterWebApiDataRobot) {共计应下载数: 4, 本次应下载数: 4, 下载失败数: 0}
[INFO ][2023-08-01 17:04:03][3976] (EastmoneyDatacenterWebApiDataRobot) -------- (增量)下载结束</eastmoney_market_hsgthis_json> --------
[INFO ][2023-08-01 17:04:03][3976] (EastmoneyDatacenterWebApiDataRobot) -------- <eastmoney_stock_rzrq_json>(增量)下载开始 --------
[INFO ][2023-08-01 17:05:55][3976] (EastmoneyDatacenterWebApiDataRobot) {共计应下载数: 3320, 本次应下载数: 3320, 下载失败数: 0}
[INFO ][2023-08-01 17:05:55][3976] (EastmoneyDatacenterWebApiDataRobot) -------- (增量)下载结束</eastmoney_stock_rzrq_json> --------
[INFO ][2023-08-01 17:05:55][3976] (EastmoneyDatacenterWebApiDataRobot) -------- <eastmoney_stock_hsgthdsta_json>(增量)下载开始 --------
[INFO ][2023-08-01 17:06:58][3976] (EastmoneyDatacenterWebApiDataRobot) {共计应下载数: 2710, 本次应下载数: 2710, 下载失败数: 0}
[INFO ][2023-08-01 17:06:58][3976] (EastmoneyDatacenterWebApiDataRobot) -------- (增量)下载结束</eastmoney_stock_hsgthdsta_json> --------
[INFO ][2023-08-01 17:06:58][3976] (EastmoneyDatacenterWebApiDataRobot) -------- <eastmoney_stock_hsgtcjb_json>(增量)下载开始 --------
[INFO ][2023-08-01 17:07:55][3976] (EastmoneyDatacenterWebApiDataRobot) {共计应下载数: 2710, 本次应下载数: 2710, 下载失败数: 0}
[INFO ][2023-08-01 17:07:55][3976] (EastmoneyDatacenterWebApiDataRobot) -------- (增量)下载结束</eastmoney_stock_hsgtcjb_json> --------
[INFO ][2023-08-01 17:07:55][3976] (EastmoneyDatacenterWebApiDataRobot) -------- <eastmoney_stock_ggthdsta_json>(增量)下载开始 --------
[INFO ][2023-08-01 17:08:10][3976] (EastmoneyDatacenterWebApiDataRobot) {共计应下载数: 557, 本次应下载数: 557, 下载失败数: 0}
[INFO ][2023-08-01 17:08:10][3976] (EastmoneyDatacenterWebApiDataRobot) -------- (增量)下载结束</eastmoney_stock_ggthdsta_json> --------
[INFO ][2023-08-01 17:08:10][3976] (EastmoneyDatacenterWebApiDataRobot) -------- <eastmoney_stock_dzjy_daystats_json>(增量)下载开始 --------
[INFO ][2023-08-01 17:10:20][3976] (EastmoneyDatacenterWebApiDataRobot) {共计应下载数: 4944, 本次应下载数: 4944, 下载失败数: 0}
[INFO ][2023-08-01 17:10:20][3976] (EastmoneyDatacenterWebApiDataRobot) -------- (增量)下载结束</eastmoney_stock_dzjy_daystats_json> --------
[INFO ][2023-08-01 17:10:20][3976] (EastmoneyStockCapitalFlowDataRobot) -------- <eastmoney>(增量)下载资金流向历史数据开始 --------
[INFO ][2023-08-01 17:12:28][3976] (EastmoneyStockCapitalFlowDataRobot) 共计应下载数: 4945, 本次应下载数: 4945, 下载失败数: 190}
[INFO ][2023-08-01 17:12:28][3976] (EastmoneyStockCapitalFlowDataRobot) -------- 下载资金流向历史数据结束</eastmoney> --------
[INFO ][2023-08-01 17:12:28][3976] (SwsindexDayDataRobot) -------- <swsindex>(增量)下载申万行业日线数据开始 --------
[INFO ][2023-08-01 17:12:28][3976] (SwsindexDayDataRobot) -------- 下载申万行业日线数据结束</swsindex> --------
[INFO ][2023-08-01 17:12:28][3976] (SohuStockDayDataRobot) -------- <sohu>下载日线数据开始 --------
[INFO ][2023-08-01 17:12:30][3976] (SohuStockDayDataRobot) {股票数: 4944, 本次应下载数: 214, 更新失败数: 0}
[INFO ][2023-08-01 17:12:30][3976] (SohuStockDayDataRobot) -------- 下载日线数据结束</sohu> --------
[INFO ][2023-08-01 17:12:30][3976] (EastmoneyStockCapitalFlowDataRobot) -------- <eastmoney>(增量)下载资金流向历史数据开始 --------
[INFO ][2023-08-01 17:12:55][3976] (EastmoneyStockCapitalFlowDataRobot) 共计应下载数: 4945, 本次应下载数: 364, 下载失败数: 32}
[INFO ][2023-08-01 17:12:55][3976] (EastmoneyStockCapitalFlowDataRobot) -------- 下载资金流向历史数据结束</eastmoney> --------
[INFO ][2023-08-01 17:12:55][3976] (EastmoneyStockCapitalFlowDataRobot) -------- <eastmoney>(增量)下载资金流向历史数据开始 --------
[INFO ][2023-08-01 17:12:58][3976] (EastmoneyStockCapitalFlowDataRobot) 共计应下载数: 4945, 本次应下载数: 208, 下载失败数: 0}
[INFO ][2023-08-01 17:12:58][3976] (EastmoneyStockCapitalFlowDataRobot) -------- 下载资金流向历史数据结束</eastmoney> --------
[INFO ][2023-08-01 17:12:58][3976] (DiffWindMain$4) EOD数据源下载状态: {sina_stock_corp_info=-9999, sina_swhy2_stock=-9999, sina_stock_xq_info=-9999, netease_stock_day=-9999, netease_stock_zcfzb_json=-9999, netease_stock_lrb_json=-9999, netease_stock_xjllb_json=-9999, netease_stock_zycwzb_json=-9999, netease_stock_fhpg=-9999, netease_stock_cjmx=-9999, netease_stock_day_html=-9999, sohu_stock_day_1y=0, swsindex_hangye_day=0, xueqiu_stock_shareschg_json=-9999, xueqiu_stock_main_indicator_json=-9999, xueqiu_stock_income_statement_json=-9999, xueqiu_stock_balance_sheet_json=-9999, xueqiu_stock_cashflow_statement_json=-9999, xueqiu_stock_bonus_json=-9999, eastmoney_market_rzrq_json=0, eastmoney_market_hsgthis_json=0, eastmoney_stock_rzrq_json=0, eastmoney_stock_hsgthdsta_json=0, eastmoney_stock_ggthdsta_json=0, eastmoney_stock_hsgtcjb_json=0, eastmoney_stock_gpzy_json=-9999, eastmoney_stock_dzjy_daystats_json=0, eastmoney_stock_gdhs_json=-9999, eastmoney_stock_fhsp_json=-9999, eastmoney_stock_capitalflow_json=0, ths_stock_bonus_json=-9999}
[INFO ][2023-08-01 17:12:58][3976] (SourceDataETL) -------- <sohu>转存sohu日线数据至中间表开始 --------
[INFO ][2023-08-01 17:13:22][3976] (SourceDataETL) -------- 转存sohu日线数据至中间表结束</sohu> --------
[INFO ][2023-08-01 17:13:22][3976] (DayDataFQ) -------- <dw>日线数据前复权开始 --------
[INFO ][2023-08-01 17:14:09][3976] (DayDataFQ) -------- 日线数据前复权结束</dw> --------
[INFO ][2023-08-01 20:00:00][5178] (EastmoneyDatacenterWebApiDataRobot) -------- <eastmoney_market_rzrq_json>(增量)下载开始 --------
[INFO ][2023-08-01 20:00:00][5178] (EastmoneyDatacenterWebApiDataRobot) {共计应下载数: 2, 本次应下载数: 2, 下载失败数: 0}
[INFO ][2023-08-01 20:00:00][5178] (EastmoneyDatacenterWebApiDataRobot) -------- (增量)下载结束</eastmoney_market_rzrq_json> --------
[INFO ][2023-08-01 20:00:00][5178] (EastmoneyDatacenterWebApiDataRobot) -------- <eastmoney_market_hsgthis_json>(增量)下载开始 --------
[INFO ][2023-08-01 20:00:00][5178] (EastmoneyDatacenterWebApiDataRobot) {共计应下载数: 4, 本次应下载数: 4, 下载失败数: 0}
[INFO ][2023-08-01 20:00:00][5178] (EastmoneyDatacenterWebApiDataRobot) -------- (增量)下载结束</eastmoney_market_hsgthis_json> --------
[INFO ][2023-08-01 20:00:00][5178] (EastmoneyDatacenterWebApiDataRobot) -------- <eastmoney_stock_rzrq_json>(增量)下载开始 --------
[INFO ][2023-08-01 20:01:25][5178] (EastmoneyDatacenterWebApiDataRobot) {共计应下载数: 3321, 本次应下载数: 3321, 下载失败数: 0}
[INFO ][2023-08-01 20:01:25][5178] (EastmoneyDatacenterWebApiDataRobot) -------- (增量)下载结束</eastmoney_stock_rzrq_json> --------
[INFO ][2023-08-01 20:01:25][5178] (EastmoneyDatacenterWebApiDataRobot) -------- <eastmoney_stock_hsgthdsta_json>(增量)下载开始 --------
[INFO ][2023-08-01 20:03:02][5178] (EastmoneyDatacenterWebApiDataRobot) {共计应下载数: 2710, 本次应下载数: 2710, 下载失败数: 0}
[INFO ][2023-08-01 20:03:02][5178] (EastmoneyDatacenterWebApiDataRobot) -------- (增量)下载结束</eastmoney_stock_hsgthdsta_json> --------
[INFO ][2023-08-01 20:03:02][5178] (EastmoneyDatacenterWebApiDataRobot) -------- <eastmoney_stock_hsgtcjb_json>(增量)下载开始 --------
[INFO ][2023-08-01 20:04:07][5178] (EastmoneyDatacenterWebApiDataRobot) {共计应下载数: 2710, 本次应下载数: 2710, 下载失败数: 0}
[INFO ][2023-08-01 20:04:07][5178] (EastmoneyDatacenterWebApiDataRobot) -------- (增量)下载结束</eastmoney_stock_hsgtcjb_json> --------
[INFO ][2023-08-01 20:04:07][5178] (EastmoneyDatacenterWebApiDataRobot) -------- <eastmoney_stock_ggthdsta_json>(增量)下载开始 --------
[INFO ][2023-08-01 20:04:26][5178] (EastmoneyDatacenterWebApiDataRobot) {共计应下载数: 557, 本次应下载数: 557, 下载失败数: 0}
[INFO ][2023-08-01 20:04:26][5178] (EastmoneyDatacenterWebApiDataRobot) -------- (增量)下载结束</eastmoney_stock_ggthdsta_json> --------
[INFO ][2023-08-01 20:04:26][5178] (EastmoneyDatacenterWebApiDataRobot) -------- <eastmoney_stock_dzjy_daystats_json>(增量)下载开始 --------
[INFO ][2023-08-01 20:07:14][5178] (EastmoneyDatacenterWebApiDataRobot) {共计应下载数: 4944, 本次应下载数: 4917, 下载失败数: 0}
[INFO ][2023-08-01 20:07:14][5178] (EastmoneyDatacenterWebApiDataRobot) -------- (增量)下载结束</eastmoney_stock_dzjy_daystats_json> --------
[INFO ][2023-08-01 20:07:14][5178] (SwsindexDayDataRobot) -------- <swsindex>(增量)下载申万行业日线数据开始 --------
[INFO ][2023-08-01 20:07:14][5178] (SwsindexDayDataRobot) -------- 下载申万行业日线数据结束</swsindex> --------
[INFO ][2023-08-01 20:07:14][5178] (DiffWindMain$4) EOD数据源下载状态: {sina_stock_corp_info=-9999, sina_swhy2_stock=-9999, sina_stock_xq_info=-9999, netease_stock_day=-9999, netease_stock_zcfzb_json=-9999, netease_stock_lrb_json=-9999, netease_stock_xjllb_json=-9999, netease_stock_zycwzb_json=-9999, netease_stock_fhpg=-9999, netease_stock_cjmx=-9999, netease_stock_day_html=-9999, sohu_stock_day_1y=0, swsindex_hangye_day=0, xueqiu_stock_shareschg_json=-9999, xueqiu_stock_main_indicator_json=-9999, xueqiu_stock_income_statement_json=-9999, xueqiu_stock_balance_sheet_json=-9999, xueqiu_stock_cashflow_statement_json=-9999, xueqiu_stock_bonus_json=-9999, eastmoney_market_rzrq_json=0, eastmoney_market_hsgthis_json=0, eastmoney_stock_rzrq_json=0, eastmoney_stock_hsgthdsta_json=0, eastmoney_stock_ggthdsta_json=0, eastmoney_stock_hsgtcjb_json=0, eastmoney_stock_gpzy_json=-9999, eastmoney_stock_dzjy_daystats_json=0, eastmoney_stock_gdhs_json=-9999, eastmoney_stock_fhsp_json=-9999, eastmoney_stock_capitalflow_json=0, ths_stock_bonus_json=-9999}
[INFO ][2023-08-01 20:07:14][5178] (SourceDataETL) -------- <sohu>转存sohu日线数据至中间表开始 --------
[INFO ][2023-08-01 20:07:31][5178] (SourceDataETL) -------- 转存sohu日线数据至中间表结束</sohu> --------
[INFO ][2023-08-01 20:07:31][5178] (DayDataFQ) -------- <dw>日线数据前复权开始 --------
[INFO ][2023-08-01 20:08:16][5178] (DayDataFQ) -------- 日线数据前复权结束</dw> --------
