[INFO ][2023-02-17 09:10:00][869] (EastmoneyDatacenterWebApiDataRobot) -------- <eastmoney_market_rzrq_json>(增量)下载开始 --------
[INFO ][2023-02-17 09:10:01][869] (EastmoneyDatacenterWebApiDataRobot) {共计应下载数: 2, 本次应下载数: 2, 下载失败数: 0}
[INFO ][2023-02-17 09:10:01][869] (EastmoneyDatacenterWebApiDataRobot) -------- (增量)下载结束</eastmoney_market_rzrq_json> --------
[INFO ][2023-02-17 09:10:01][869] (EastmoneyDatacenterWebApiDataRobot) -------- <eastmoney_stock_rzrq_json>(增量)下载开始 --------
[INFO ][2023-02-17 09:11:21][869] (EastmoneyDatacenterWebApiDataRobot) {共计应下载数: 3158, 本次应下载数: 3158, 下载失败数: 0}
[INFO ][2023-02-17 09:11:21][869] (EastmoneyDatacenterWebApiDataRobot) -------- (增量)下载结束</eastmoney_stock_rzrq_json> --------
[INFO ][2023-02-17 09:11:21][869] (EastmoneyDatacenterWebApiDataRobot) -------- <eastmoney_stock_hsgthdsta_json>(增量)下载开始 --------
[INFO ][2023-02-17 09:12:02][869] (EastmoneyDatacenterWebApiDataRobot) {共计应下载数: 1492, 本次应下载数: 1492, 下载失败数: 0}
[INFO ][2023-02-17 09:12:02][869] (EastmoneyDatacenterWebApiDataRobot) -------- (增量)下载结束</eastmoney_stock_hsgthdsta_json> --------
[INFO ][2023-02-17 09:12:02][869] (EastmoneyDatacenterWebApiDataRobot) -------- <eastmoney_stock_ggthdsta_json>(增量)下载开始 --------
[INFO ][2023-02-17 09:12:24][869] (EastmoneyDatacenterWebApiDataRobot) {共计应下载数: 548, 本次应下载数: 548, 下载失败数: 0}
[INFO ][2023-02-17 09:12:24][869] (EastmoneyDatacenterWebApiDataRobot) -------- (增量)下载结束</eastmoney_stock_ggthdsta_json> --------
[INFO ][2023-02-17 09:12:24][869] (DiffWindMain) BOD数据源下载状态: {sina_stock_corp_info=-9999, sina_swhy2_stock=-9999, sina_stock_xq_info=-9999, netease_stock_day=-9999, netease_stock_zcfzb_json=-9999, netease_stock_lrb_json=-9999, netease_stock_xjllb_json=-9999, netease_stock_zycwzb_json=-9999, netease_stock_fhpg=-9999, netease_stock_cjmx=-9999, netease_stock_day_html=-9999, sohu_stock_day_1y=-9999, swsindex_hangye_day=-9999, xueqiu_stock_shareschg_json=-9999, xueqiu_stock_main_indicator_json=-9999, xueqiu_stock_income_statement_json=-9999, xueqiu_stock_balance_sheet_json=-9999, xueqiu_stock_cashflow_statement_json=-9999, xueqiu_stock_bonus_json=-9999, eastmoney_market_rzrq_json=0, eastmoney_market_hsgthis_json=0, eastmoney_stock_rzrq_json=0, eastmoney_stock_hsgthdsta_json=0, eastmoney_stock_ggthdsta_json=0, eastmoney_stock_hsgtcjb_json=0, eastmoney_stock_gpzy_json=-9999, eastmoney_stock_dzjy_daystats_json=-9999, eastmoney_stock_gdhs_json=-9999, eastmoney_stock_fhsp_json=-9999, eastmoney_stock_capitalflow_json=-9999, ths_stock_bonus_json=-9999}
[INFO ][2023-02-17 09:15:00][936] (DiffWindMain) BOD数据源下载状态: {sina_stock_corp_info=-9999, sina_swhy2_stock=-9999, sina_stock_xq_info=-9999, netease_stock_day=-9999, netease_stock_zcfzb_json=-9999, netease_stock_lrb_json=-9999, netease_stock_xjllb_json=-9999, netease_stock_zycwzb_json=-9999, netease_stock_fhpg=-9999, netease_stock_cjmx=-9999, netease_stock_day_html=-9999, sohu_stock_day_1y=-9999, swsindex_hangye_day=-9999, xueqiu_stock_shareschg_json=-9999, xueqiu_stock_main_indicator_json=-9999, xueqiu_stock_income_statement_json=-9999, xueqiu_stock_balance_sheet_json=-9999, xueqiu_stock_cashflow_statement_json=-9999, xueqiu_stock_bonus_json=-9999, eastmoney_market_rzrq_json=0, eastmoney_market_hsgthis_json=0, eastmoney_stock_rzrq_json=0, eastmoney_stock_hsgthdsta_json=0, eastmoney_stock_ggthdsta_json=0, eastmoney_stock_hsgtcjb_json=0, eastmoney_stock_gpzy_json=-9999, eastmoney_stock_dzjy_daystats_json=-9999, eastmoney_stock_gdhs_json=-9999, eastmoney_stock_fhsp_json=-9999, eastmoney_stock_capitalflow_json=-9999, ths_stock_bonus_json=-9999}
[INFO ][2023-02-17 09:20:00][977] (DiffWindMain) BOD数据源下载状态: {sina_stock_corp_info=-9999, sina_swhy2_stock=-9999, sina_stock_xq_info=-9999, netease_stock_day=-9999, netease_stock_zcfzb_json=-9999, netease_stock_lrb_json=-9999, netease_stock_xjllb_json=-9999, netease_stock_zycwzb_json=-9999, netease_stock_fhpg=-9999, netease_stock_cjmx=-9999, netease_stock_day_html=-9999, sohu_stock_day_1y=-9999, swsindex_hangye_day=-9999, xueqiu_stock_shareschg_json=-9999, xueqiu_stock_main_indicator_json=-9999, xueqiu_stock_income_statement_json=-9999, xueqiu_stock_balance_sheet_json=-9999, xueqiu_stock_cashflow_statement_json=-9999, xueqiu_stock_bonus_json=-9999, eastmoney_market_rzrq_json=0, eastmoney_market_hsgthis_json=0, eastmoney_stock_rzrq_json=0, eastmoney_stock_hsgthdsta_json=0, eastmoney_stock_ggthdsta_json=0, eastmoney_stock_hsgtcjb_json=0, eastmoney_stock_gpzy_json=-9999, eastmoney_stock_dzjy_daystats_json=-9999, eastmoney_stock_gdhs_json=-9999, eastmoney_stock_fhsp_json=-9999, eastmoney_stock_capitalflow_json=-9999, ths_stock_bonus_json=-9999}
[INFO ][2023-02-17 12:00:00][2025] (EastmoneyDatacenterWebApiDataRobot) -------- <eastmoney_stock_gdhs_json>(增量)下载开始 --------
[INFO ][2023-02-17 12:01:38][2025] (EastmoneyDatacenterWebApiDataRobot) {共计应下载数: 4944, 本次应下载数: 4944, 下载失败数: 0}
[INFO ][2023-02-17 12:01:38][2025] (EastmoneyDatacenterWebApiDataRobot) -------- (增量)下载结束</eastmoney_stock_gdhs_json> --------
[INFO ][2023-02-17 12:01:38][2025] (EastmoneyDatacenterWebApiDataRobot) -------- <eastmoney_stock_gpzy_json>(增量)下载开始 --------
[INFO ][2023-02-17 12:04:16][2025] (EastmoneyDatacenterWebApiDataRobot) {共计应下载数: 4944, 本次应下载数: 4944, 下载失败数: 0}
[INFO ][2023-02-17 12:04:16][2025] (EastmoneyDatacenterWebApiDataRobot) -------- (增量)下载结束</eastmoney_stock_gpzy_json> --------
[INFO ][2023-02-17 12:04:16][2025] (SinaStockXQDataRobot) -------- <sina>(全量)除权数据下载开始 --------
[INFO ][2023-02-17 13:38:34][2025] (SinaStockXQDataRobot) {股票数: 4944, 本次应下载数: 4916, 下载失败数: 7}
[INFO ][2023-02-17 13:38:34][2025] (SinaStockXQDataRobot) -------- 除权数据下载结束</sina> --------
[INFO ][2023-02-17 13:38:34][2025] (ThsStockBonusDataRobot) -------- <ths_stock_bonus_json>(全量)下载开始 --------
[INFO ][2023-02-17 13:48:53][2025] (ThsStockBonusDataRobot) {共计应下载数: 4944, 本次应下载数: 4944, 下载失败数: 74}
[INFO ][2023-02-17 13:48:53][2025] (ThsStockBonusDataRobot) -------- (全量)下载结束</ths_stock_bonus_json> --------
[INFO ][2023-02-17 13:48:53][2025] (SinaStockXQDataRobot) -------- <sina>(全量)除权数据下载开始 --------
[INFO ][2023-02-17 13:54:14][2025] (SinaStockXQDataRobot) {股票数: 4944, 本次应下载数: 279, 下载失败数: 0}
[INFO ][2023-02-17 13:54:14][2025] (SinaStockXQDataRobot) -------- 除权数据下载结束</sina> --------
[INFO ][2023-02-17 13:54:14][2025] (ThsStockBonusDataRobot) -------- <ths_stock_bonus_json>(全量)下载开始 --------
[INFO ][2023-02-17 13:54:38][2025] (ThsStockBonusDataRobot) {共计应下载数: 4944, 本次应下载数: 177, 下载失败数: 74}
[INFO ][2023-02-17 13:54:38][2025] (ThsStockBonusDataRobot) -------- (全量)下载结束</ths_stock_bonus_json> --------
[INFO ][2023-02-17 13:54:38][2025] (ThsStockBonusDataRobot) -------- <ths_stock_bonus_json>(全量)下载开始 --------
[INFO ][2023-02-17 13:55:01][2025] (ThsStockBonusDataRobot) {共计应下载数: 4944, 本次应下载数: 177, 下载失败数: 74}
[INFO ][2023-02-17 13:55:01][2025] (ThsStockBonusDataRobot) -------- (全量)下载结束</ths_stock_bonus_json> --------
[INFO ][2023-02-17 13:55:01][2025] (ThsStockBonusDataRobot) -------- <ths_stock_bonus_json>(全量)下载开始 --------
[INFO ][2023-02-17 13:55:24][2025] (ThsStockBonusDataRobot) {共计应下载数: 4944, 本次应下载数: 177, 下载失败数: 74}
[INFO ][2023-02-17 13:55:24][2025] (ThsStockBonusDataRobot) -------- (全量)下载结束</ths_stock_bonus_json> --------
[INFO ][2023-02-17 13:55:24][2025] (ThsStockBonusDataRobot) -------- <ths_stock_bonus_json>(全量)下载开始 --------
[INFO ][2023-02-17 13:55:47][2025] (ThsStockBonusDataRobot) {共计应下载数: 4944, 本次应下载数: 177, 下载失败数: 74}
[INFO ][2023-02-17 13:55:47][2025] (ThsStockBonusDataRobot) -------- (全量)下载结束</ths_stock_bonus_json> --------
[INFO ][2023-02-17 17:00:00][3973] (SohuStockDayDataRobot) -------- <sohu>下载日线数据开始 --------
[INFO ][2023-02-17 17:03:31][3973] (SohuStockDayDataRobot) {股票数: 4944, 本次应下载数: 4947, 更新失败数: 1}
[INFO ][2023-02-17 17:03:31][3973] (SohuStockDayDataRobot) -------- 下载日线数据结束</sohu> --------
[INFO ][2023-02-17 17:03:31][3973] (EastmoneyDatacenterWebApiDataRobot) -------- <eastmoney_market_rzrq_json>(增量)下载开始 --------
[INFO ][2023-02-17 17:03:31][3973] (EastmoneyDatacenterWebApiDataRobot) {共计应下载数: 2, 本次应下载数: 2, 下载失败数: 0}
[INFO ][2023-02-17 17:03:31][3973] (EastmoneyDatacenterWebApiDataRobot) -------- (增量)下载结束</eastmoney_market_rzrq_json> --------
[INFO ][2023-02-17 17:03:31][3973] (EastmoneyDatacenterWebApiDataRobot) -------- <eastmoney_market_hsgthis_json>(增量)下载开始 --------
[INFO ][2023-02-17 17:03:32][3973] (EastmoneyDatacenterWebApiDataRobot) {共计应下载数: 4, 本次应下载数: 4, 下载失败数: 0}
[INFO ][2023-02-17 17:03:32][3973] (EastmoneyDatacenterWebApiDataRobot) -------- (增量)下载结束</eastmoney_market_hsgthis_json> --------
[INFO ][2023-02-17 17:03:32][3973] (EastmoneyDatacenterWebApiDataRobot) -------- <eastmoney_stock_rzrq_json>(增量)下载开始 --------
[INFO ][2023-02-17 17:05:14][3973] (EastmoneyDatacenterWebApiDataRobot) {共计应下载数: 3158, 本次应下载数: 3158, 下载失败数: 0}
[INFO ][2023-02-17 17:05:14][3973] (EastmoneyDatacenterWebApiDataRobot) -------- (增量)下载结束</eastmoney_stock_rzrq_json> --------
[INFO ][2023-02-17 17:05:14][3973] (EastmoneyDatacenterWebApiDataRobot) -------- <eastmoney_stock_hsgthdsta_json>(增量)下载开始 --------
[INFO ][2023-02-17 17:05:43][3973] (EastmoneyDatacenterWebApiDataRobot) {共计应下载数: 1492, 本次应下载数: 1492, 下载失败数: 0}
[INFO ][2023-02-17 17:05:43][3973] (EastmoneyDatacenterWebApiDataRobot) -------- (增量)下载结束</eastmoney_stock_hsgthdsta_json> --------
[INFO ][2023-02-17 17:05:43][3973] (EastmoneyDatacenterWebApiDataRobot) -------- <eastmoney_stock_hsgtcjb_json>(增量)下载开始 --------
[INFO ][2023-02-17 17:06:33][3973] (EastmoneyDatacenterWebApiDataRobot) {共计应下载数: 1492, 本次应下载数: 1492, 下载失败数: 0}
[INFO ][2023-02-17 17:06:33][3973] (EastmoneyDatacenterWebApiDataRobot) -------- (增量)下载结束</eastmoney_stock_hsgtcjb_json> --------
[INFO ][2023-02-17 17:06:33][3973] (EastmoneyDatacenterWebApiDataRobot) -------- <eastmoney_stock_ggthdsta_json>(增量)下载开始 --------
[INFO ][2023-02-17 17:06:46][3973] (EastmoneyDatacenterWebApiDataRobot) {共计应下载数: 548, 本次应下载数: 548, 下载失败数: 0}
[INFO ][2023-02-17 17:06:46][3973] (EastmoneyDatacenterWebApiDataRobot) -------- (增量)下载结束</eastmoney_stock_ggthdsta_json> --------
[INFO ][2023-02-17 17:06:46][3973] (EastmoneyDatacenterWebApiDataRobot) -------- <eastmoney_stock_dzjy_daystats_json>(增量)下载开始 --------
[INFO ][2023-02-17 17:08:43][3973] (EastmoneyDatacenterWebApiDataRobot) {共计应下载数: 4944, 本次应下载数: 4944, 下载失败数: 3}
[INFO ][2023-02-17 17:08:43][3973] (EastmoneyDatacenterWebApiDataRobot) -------- (增量)下载结束</eastmoney_stock_dzjy_daystats_json> --------
[INFO ][2023-02-17 17:08:43][3973] (EastmoneyStockCapitalFlowDataRobot) -------- <eastmoney>(增量)下载资金流向历史数据开始 --------
[INFO ][2023-02-17 17:11:55][3973] (EastmoneyStockCapitalFlowDataRobot) 共计应下载数: 4945, 本次应下载数: 4945, 下载失败数: 309}
[INFO ][2023-02-17 17:11:55][3973] (EastmoneyStockCapitalFlowDataRobot) -------- 下载资金流向历史数据结束</eastmoney> --------
[INFO ][2023-02-17 17:11:55][3973] (SwsindexDayDataRobot) -------- <swsindex>(增量)下载申万行业日线数据开始 --------
[INFO ][2023-02-17 17:11:55][3973] (SwsindexDayDataRobot) -------- 下载申万行业日线数据结束</swsindex> --------
[INFO ][2023-02-17 17:11:55][3973] (SohuStockDayDataRobot) -------- <sohu>下载日线数据开始 --------
[INFO ][2023-02-17 17:12:03][3973] (SohuStockDayDataRobot) {股票数: 4944, 本次应下载数: 162, 更新失败数: 0}
[INFO ][2023-02-17 17:12:03][3973] (SohuStockDayDataRobot) -------- 下载日线数据结束</sohu> --------
[INFO ][2023-02-17 17:12:03][3973] (EastmoneyDatacenterWebApiDataRobot) -------- <eastmoney_stock_dzjy_daystats_json>(增量)下载开始 --------
[INFO ][2023-02-17 17:14:21][3973] (EastmoneyDatacenterWebApiDataRobot) {共计应下载数: 4944, 本次应下载数: 4874, 下载失败数: 1}
[INFO ][2023-02-17 17:14:21][3973] (EastmoneyDatacenterWebApiDataRobot) -------- (增量)下载结束</eastmoney_stock_dzjy_daystats_json> --------
[INFO ][2023-02-17 17:14:21][3973] (EastmoneyStockCapitalFlowDataRobot) -------- <eastmoney>(增量)下载资金流向历史数据开始 --------
[INFO ][2023-02-17 17:14:25][3973] (EastmoneyStockCapitalFlowDataRobot) 共计应下载数: 4945, 本次应下载数: 440, 下载失败数: 0}
[INFO ][2023-02-17 17:14:25][3973] (EastmoneyStockCapitalFlowDataRobot) -------- 下载资金流向历史数据结束</eastmoney> --------
[INFO ][2023-02-17 17:14:25][3973] (EastmoneyDatacenterWebApiDataRobot) -------- <eastmoney_stock_dzjy_daystats_json>(增量)下载开始 --------
[INFO ][2023-02-17 17:16:35][3973] (EastmoneyDatacenterWebApiDataRobot) {共计应下载数: 4944, 本次应下载数: 4874, 下载失败数: 0}
[INFO ][2023-02-17 17:16:35][3973] (EastmoneyDatacenterWebApiDataRobot) -------- (增量)下载结束</eastmoney_stock_dzjy_daystats_json> --------
[INFO ][2023-02-17 17:16:35][3973] (DiffWindMain$4) EOD数据源下载状态: {sina_stock_corp_info=-9999, sina_swhy2_stock=-9999, sina_stock_xq_info=-9999, netease_stock_day=-9999, netease_stock_zcfzb_json=-9999, netease_stock_lrb_json=-9999, netease_stock_xjllb_json=-9999, netease_stock_zycwzb_json=-9999, netease_stock_fhpg=-9999, netease_stock_cjmx=-9999, netease_stock_day_html=-9999, sohu_stock_day_1y=0, swsindex_hangye_day=0, xueqiu_stock_shareschg_json=-9999, xueqiu_stock_main_indicator_json=-9999, xueqiu_stock_income_statement_json=-9999, xueqiu_stock_balance_sheet_json=-9999, xueqiu_stock_cashflow_statement_json=-9999, xueqiu_stock_bonus_json=-9999, eastmoney_market_rzrq_json=0, eastmoney_market_hsgthis_json=0, eastmoney_stock_rzrq_json=0, eastmoney_stock_hsgthdsta_json=0, eastmoney_stock_ggthdsta_json=0, eastmoney_stock_hsgtcjb_json=0, eastmoney_stock_gpzy_json=-9999, eastmoney_stock_dzjy_daystats_json=0, eastmoney_stock_gdhs_json=-9999, eastmoney_stock_fhsp_json=-9999, eastmoney_stock_capitalflow_json=0, ths_stock_bonus_json=-9999}
[INFO ][2023-02-17 17:16:35][3973] (SourceDataETL) -------- <sohu>转存sohu日线数据至中间表开始 --------
[INFO ][2023-02-17 17:16:48][3973] (SourceDataETL) -------- 转存sohu日线数据至中间表结束</sohu> --------
[INFO ][2023-02-17 17:16:48][3973] (DayDataFQ) -------- <dw>日线数据前复权开始 --------
[INFO ][2023-02-17 17:17:18][3973] (DayDataFQ) -------- 日线数据前复权结束</dw> --------
[INFO ][2023-02-17 20:00:00][5178] (EastmoneyDatacenterWebApiDataRobot) -------- <eastmoney_market_rzrq_json>(增量)下载开始 --------
[INFO ][2023-02-17 20:00:00][5178] (EastmoneyDatacenterWebApiDataRobot) {共计应下载数: 2, 本次应下载数: 2, 下载失败数: 0}
[INFO ][2023-02-17 20:00:00][5178] (EastmoneyDatacenterWebApiDataRobot) -------- (增量)下载结束</eastmoney_market_rzrq_json> --------
[INFO ][2023-02-17 20:00:00][5178] (EastmoneyDatacenterWebApiDataRobot) -------- <eastmoney_market_hsgthis_json>(增量)下载开始 --------
[INFO ][2023-02-17 20:00:00][5178] (EastmoneyDatacenterWebApiDataRobot) {共计应下载数: 4, 本次应下载数: 4, 下载失败数: 0}
[INFO ][2023-02-17 20:00:00][5178] (EastmoneyDatacenterWebApiDataRobot) -------- (增量)下载结束</eastmoney_market_hsgthis_json> --------
[INFO ][2023-02-17 20:00:00][5178] (EastmoneyDatacenterWebApiDataRobot) -------- <eastmoney_stock_rzrq_json>(增量)下载开始 --------
[INFO ][2023-02-17 20:01:40][5178] (EastmoneyDatacenterWebApiDataRobot) {共计应下载数: 3161, 本次应下载数: 3161, 下载失败数: 0}
[INFO ][2023-02-17 20:01:40][5178] (EastmoneyDatacenterWebApiDataRobot) -------- (增量)下载结束</eastmoney_stock_rzrq_json> --------
[INFO ][2023-02-17 20:01:40][5178] (EastmoneyDatacenterWebApiDataRobot) -------- <eastmoney_stock_hsgthdsta_json>(增量)下载开始 --------
[INFO ][2023-02-17 20:02:13][5178] (EastmoneyDatacenterWebApiDataRobot) {共计应下载数: 1492, 本次应下载数: 1492, 下载失败数: 0}
[INFO ][2023-02-17 20:02:13][5178] (EastmoneyDatacenterWebApiDataRobot) -------- (增量)下载结束</eastmoney_stock_hsgthdsta_json> --------
[INFO ][2023-02-17 20:02:13][5178] (EastmoneyDatacenterWebApiDataRobot) -------- <eastmoney_stock_hsgtcjb_json>(增量)下载开始 --------
[INFO ][2023-02-17 20:02:56][5178] (EastmoneyDatacenterWebApiDataRobot) {共计应下载数: 1492, 本次应下载数: 1492, 下载失败数: 0}
[INFO ][2023-02-17 20:02:56][5178] (EastmoneyDatacenterWebApiDataRobot) -------- (增量)下载结束</eastmoney_stock_hsgtcjb_json> --------
[INFO ][2023-02-17 20:02:56][5178] (EastmoneyDatacenterWebApiDataRobot) -------- <eastmoney_stock_ggthdsta_json>(增量)下载开始 --------
[INFO ][2023-02-17 20:03:34][5178] (EastmoneyDatacenterWebApiDataRobot) {共计应下载数: 548, 本次应下载数: 548, 下载失败数: 0}
[INFO ][2023-02-17 20:03:34][5178] (EastmoneyDatacenterWebApiDataRobot) -------- (增量)下载结束</eastmoney_stock_ggthdsta_json> --------
[INFO ][2023-02-17 20:03:34][5178] (SwsindexDayDataRobot) -------- <swsindex>(增量)下载申万行业日线数据开始 --------
[INFO ][2023-02-17 20:03:34][5178] (SwsindexDayDataRobot) -------- 下载申万行业日线数据结束</swsindex> --------
[INFO ][2023-02-17 20:03:34][5178] (DiffWindMain$4) EOD数据源下载状态: {sina_stock_corp_info=-9999, sina_swhy2_stock=-9999, sina_stock_xq_info=-9999, netease_stock_day=-9999, netease_stock_zcfzb_json=-9999, netease_stock_lrb_json=-9999, netease_stock_xjllb_json=-9999, netease_stock_zycwzb_json=-9999, netease_stock_fhpg=-9999, netease_stock_cjmx=-9999, netease_stock_day_html=-9999, sohu_stock_day_1y=0, swsindex_hangye_day=0, xueqiu_stock_shareschg_json=-9999, xueqiu_stock_main_indicator_json=-9999, xueqiu_stock_income_statement_json=-9999, xueqiu_stock_balance_sheet_json=-9999, xueqiu_stock_cashflow_statement_json=-9999, xueqiu_stock_bonus_json=-9999, eastmoney_market_rzrq_json=0, eastmoney_market_hsgthis_json=0, eastmoney_stock_rzrq_json=0, eastmoney_stock_hsgthdsta_json=0, eastmoney_stock_ggthdsta_json=0, eastmoney_stock_hsgtcjb_json=0, eastmoney_stock_gpzy_json=-9999, eastmoney_stock_dzjy_daystats_json=0, eastmoney_stock_gdhs_json=-9999, eastmoney_stock_fhsp_json=-9999, eastmoney_stock_capitalflow_json=0, ths_stock_bonus_json=-9999}
[INFO ][2023-02-17 20:03:34][5178] (SourceDataETL) -------- <sohu>转存sohu日线数据至中间表开始 --------
[INFO ][2023-02-17 20:03:44][5178] (SourceDataETL) -------- 转存sohu日线数据至中间表结束</sohu> --------
[INFO ][2023-02-17 20:03:44][5178] (DayDataFQ) -------- <dw>日线数据前复权开始 --------
[INFO ][2023-02-17 20:04:14][5178] (DayDataFQ) -------- 日线数据前复权结束</dw> --------
