[INFO ][2023-06-16 09:10:01][869] (EastmoneyDatacenterWebApiDataRobot) -------- <eastmoney_market_rzrq_json>(增量)下载开始 --------
[INFO ][2023-06-16 09:10:01][869] (EastmoneyDatacenterWebApiDataRobot) {共计应下载数: 2, 本次应下载数: 2, 下载失败数: 0}
[INFO ][2023-06-16 09:10:01][869] (EastmoneyDatacenterWebApiDataRobot) -------- (增量)下载结束</eastmoney_market_rzrq_json> --------
[INFO ][2023-06-16 09:10:01][869] (EastmoneyDatacenterWebApiDataRobot) -------- <eastmoney_stock_rzrq_json>(增量)下载开始 --------
[INFO ][2023-06-16 09:11:14][869] (EastmoneyDatacenterWebApiDataRobot) {共计应下载数: 3246, 本次应下载数: 3246, 下载失败数: 0}
[INFO ][2023-06-16 09:11:14][869] (EastmoneyDatacenterWebApiDataRobot) -------- (增量)下载结束</eastmoney_stock_rzrq_json> --------
[INFO ][2023-06-16 09:11:14][869] (EastmoneyDatacenterWebApiDataRobot) -------- <eastmoney_stock_hsgthdsta_json>(增量)下载开始 --------
[INFO ][2023-06-16 09:12:25][869] (EastmoneyDatacenterWebApiDataRobot) {共计应下载数: 2544, 本次应下载数: 2544, 下载失败数: 0}
[INFO ][2023-06-16 09:12:25][869] (EastmoneyDatacenterWebApiDataRobot) -------- (增量)下载结束</eastmoney_stock_hsgthdsta_json> --------
[INFO ][2023-06-16 09:12:25][869] (EastmoneyDatacenterWebApiDataRobot) -------- <eastmoney_stock_ggthdsta_json>(增量)下载开始 --------
[INFO ][2023-06-16 09:12:44][869] (EastmoneyDatacenterWebApiDataRobot) {共计应下载数: 562, 本次应下载数: 562, 下载失败数: 0}
[INFO ][2023-06-16 09:12:44][869] (EastmoneyDatacenterWebApiDataRobot) -------- (增量)下载结束</eastmoney_stock_ggthdsta_json> --------
[INFO ][2023-06-16 09:12:44][869] (DiffWindMain) BOD数据源下载状态: {sina_stock_corp_info=-9999, sina_swhy2_stock=-9999, sina_stock_xq_info=-9999, netease_stock_day=-9999, netease_stock_zcfzb_json=-9999, netease_stock_lrb_json=-9999, netease_stock_xjllb_json=-9999, netease_stock_zycwzb_json=-9999, netease_stock_fhpg=-9999, netease_stock_cjmx=-9999, netease_stock_day_html=-9999, sohu_stock_day_1y=-9999, swsindex_hangye_day=-9999, xueqiu_stock_shareschg_json=-9999, xueqiu_stock_main_indicator_json=-9999, xueqiu_stock_income_statement_json=-9999, xueqiu_stock_balance_sheet_json=-9999, xueqiu_stock_cashflow_statement_json=-9999, xueqiu_stock_bonus_json=-9999, eastmoney_market_rzrq_json=0, eastmoney_market_hsgthis_json=0, eastmoney_stock_rzrq_json=0, eastmoney_stock_hsgthdsta_json=0, eastmoney_stock_ggthdsta_json=0, eastmoney_stock_hsgtcjb_json=0, eastmoney_stock_gpzy_json=-9999, eastmoney_stock_dzjy_daystats_json=-9999, eastmoney_stock_gdhs_json=-9999, eastmoney_stock_fhsp_json=-9999, eastmoney_stock_capitalflow_json=-9999, ths_stock_bonus_json=-9999}
[INFO ][2023-06-16 09:15:00][936] (DiffWindMain) BOD数据源下载状态: {sina_stock_corp_info=-9999, sina_swhy2_stock=-9999, sina_stock_xq_info=-9999, netease_stock_day=-9999, netease_stock_zcfzb_json=-9999, netease_stock_lrb_json=-9999, netease_stock_xjllb_json=-9999, netease_stock_zycwzb_json=-9999, netease_stock_fhpg=-9999, netease_stock_cjmx=-9999, netease_stock_day_html=-9999, sohu_stock_day_1y=-9999, swsindex_hangye_day=-9999, xueqiu_stock_shareschg_json=-9999, xueqiu_stock_main_indicator_json=-9999, xueqiu_stock_income_statement_json=-9999, xueqiu_stock_balance_sheet_json=-9999, xueqiu_stock_cashflow_statement_json=-9999, xueqiu_stock_bonus_json=-9999, eastmoney_market_rzrq_json=0, eastmoney_market_hsgthis_json=0, eastmoney_stock_rzrq_json=0, eastmoney_stock_hsgthdsta_json=0, eastmoney_stock_ggthdsta_json=0, eastmoney_stock_hsgtcjb_json=0, eastmoney_stock_gpzy_json=-9999, eastmoney_stock_dzjy_daystats_json=-9999, eastmoney_stock_gdhs_json=-9999, eastmoney_stock_fhsp_json=-9999, eastmoney_stock_capitalflow_json=-9999, ths_stock_bonus_json=-9999}
[INFO ][2023-06-16 09:20:00][970] (DiffWindMain) BOD数据源下载状态: {sina_stock_corp_info=-9999, sina_swhy2_stock=-9999, sina_stock_xq_info=-9999, netease_stock_day=-9999, netease_stock_zcfzb_json=-9999, netease_stock_lrb_json=-9999, netease_stock_xjllb_json=-9999, netease_stock_zycwzb_json=-9999, netease_stock_fhpg=-9999, netease_stock_cjmx=-9999, netease_stock_day_html=-9999, sohu_stock_day_1y=-9999, swsindex_hangye_day=-9999, xueqiu_stock_shareschg_json=-9999, xueqiu_stock_main_indicator_json=-9999, xueqiu_stock_income_statement_json=-9999, xueqiu_stock_balance_sheet_json=-9999, xueqiu_stock_cashflow_statement_json=-9999, xueqiu_stock_bonus_json=-9999, eastmoney_market_rzrq_json=0, eastmoney_market_hsgthis_json=0, eastmoney_stock_rzrq_json=0, eastmoney_stock_hsgthdsta_json=0, eastmoney_stock_ggthdsta_json=0, eastmoney_stock_hsgtcjb_json=0, eastmoney_stock_gpzy_json=-9999, eastmoney_stock_dzjy_daystats_json=-9999, eastmoney_stock_gdhs_json=-9999, eastmoney_stock_fhsp_json=-9999, eastmoney_stock_capitalflow_json=-9999, ths_stock_bonus_json=-9999}
[INFO ][2023-06-16 12:00:00][2024] (EastmoneyDatacenterWebApiDataRobot) -------- <eastmoney_stock_gdhs_json>(增量)下载开始 --------
[INFO ][2023-06-16 12:01:49][2024] (EastmoneyDatacenterWebApiDataRobot) {共计应下载数: 4944, 本次应下载数: 4944, 下载失败数: 0}
[INFO ][2023-06-16 12:01:49][2024] (EastmoneyDatacenterWebApiDataRobot) -------- (增量)下载结束</eastmoney_stock_gdhs_json> --------
[INFO ][2023-06-16 12:01:49][2024] (EastmoneyDatacenterWebApiDataRobot) -------- <eastmoney_stock_gpzy_json>(增量)下载开始 --------
[INFO ][2023-06-16 12:04:21][2024] (EastmoneyDatacenterWebApiDataRobot) {共计应下载数: 4944, 本次应下载数: 4944, 下载失败数: 0}
[INFO ][2023-06-16 12:04:21][2024] (EastmoneyDatacenterWebApiDataRobot) -------- (增量)下载结束</eastmoney_stock_gpzy_json> --------
[INFO ][2023-06-16 12:04:21][2024] (SinaStockXQDataRobot) -------- <sina>(全量)除权数据下载开始 --------
[INFO ][2023-06-16 12:56:03][2024] (SinaStockXQDataRobot) {股票数: 4944, 本次应下载数: 2698, 下载失败数: 0}
[INFO ][2023-06-16 12:56:03][2024] (SinaStockXQDataRobot) -------- 除权数据下载结束</sina> --------
[INFO ][2023-06-16 12:56:03][2024] (ThsStockBonusDataRobot) -------- <ths_stock_bonus_json>(全量)下载开始 --------
[INFO ][2023-06-16 13:06:20][2024] (ThsStockBonusDataRobot) {共计应下载数: 4944, 本次应下载数: 4944, 下载失败数: 74}
[INFO ][2023-06-16 13:06:20][2024] (ThsStockBonusDataRobot) -------- (全量)下载结束</ths_stock_bonus_json> --------
[INFO ][2023-06-16 13:06:20][2024] (ThsStockBonusDataRobot) -------- <ths_stock_bonus_json>(全量)下载开始 --------
[INFO ][2023-06-16 13:06:31][2024] (ThsStockBonusDataRobot) {共计应下载数: 4944, 本次应下载数: 80, 下载失败数: 74}
[INFO ][2023-06-16 13:06:31][2024] (ThsStockBonusDataRobot) -------- (全量)下载结束</ths_stock_bonus_json> --------
[INFO ][2023-06-16 13:06:31][2024] (ThsStockBonusDataRobot) -------- <ths_stock_bonus_json>(全量)下载开始 --------
[INFO ][2023-06-16 13:06:42][2024] (ThsStockBonusDataRobot) {共计应下载数: 4944, 本次应下载数: 76, 下载失败数: 74}
[INFO ][2023-06-16 13:06:42][2024] (ThsStockBonusDataRobot) -------- (全量)下载结束</ths_stock_bonus_json> --------
[INFO ][2023-06-16 13:06:42][2024] (ThsStockBonusDataRobot) -------- <ths_stock_bonus_json>(全量)下载开始 --------
[INFO ][2023-06-16 13:06:52][2024] (ThsStockBonusDataRobot) {共计应下载数: 4944, 本次应下载数: 76, 下载失败数: 74}
[INFO ][2023-06-16 13:06:52][2024] (ThsStockBonusDataRobot) -------- (全量)下载结束</ths_stock_bonus_json> --------
[INFO ][2023-06-16 13:06:52][2024] (ThsStockBonusDataRobot) -------- <ths_stock_bonus_json>(全量)下载开始 --------
[INFO ][2023-06-16 13:07:02][2024] (ThsStockBonusDataRobot) {共计应下载数: 4944, 本次应下载数: 76, 下载失败数: 74}
[INFO ][2023-06-16 13:07:02][2024] (ThsStockBonusDataRobot) -------- (全量)下载结束</ths_stock_bonus_json> --------
[INFO ][2023-06-16 17:00:00][3974] (SohuStockDayDataRobot) -------- <sohu>下载日线数据开始 --------
[INFO ][2023-06-16 17:04:18][3974] (SohuStockDayDataRobot) {股票数: 4944, 本次应下载数: 4947, 更新失败数: 5}
[INFO ][2023-06-16 17:04:18][3974] (SohuStockDayDataRobot) -------- 下载日线数据结束</sohu> --------
[INFO ][2023-06-16 17:04:18][3974] (EastmoneyDatacenterWebApiDataRobot) -------- <eastmoney_market_rzrq_json>(增量)下载开始 --------
[INFO ][2023-06-16 17:04:18][3974] (EastmoneyDatacenterWebApiDataRobot) {共计应下载数: 2, 本次应下载数: 2, 下载失败数: 0}
[INFO ][2023-06-16 17:04:18][3974] (EastmoneyDatacenterWebApiDataRobot) -------- (增量)下载结束</eastmoney_market_rzrq_json> --------
[INFO ][2023-06-16 17:04:18][3974] (EastmoneyDatacenterWebApiDataRobot) -------- <eastmoney_market_hsgthis_json>(增量)下载开始 --------
[INFO ][2023-06-16 17:04:19][3974] (EastmoneyDatacenterWebApiDataRobot) {共计应下载数: 4, 本次应下载数: 4, 下载失败数: 0}
[INFO ][2023-06-16 17:04:19][3974] (EastmoneyDatacenterWebApiDataRobot) -------- (增量)下载结束</eastmoney_market_hsgthis_json> --------
[INFO ][2023-06-16 17:04:19][3974] (EastmoneyDatacenterWebApiDataRobot) -------- <eastmoney_stock_rzrq_json>(增量)下载开始 --------
[INFO ][2023-06-16 17:06:02][3974] (EastmoneyDatacenterWebApiDataRobot) {共计应下载数: 3246, 本次应下载数: 3246, 下载失败数: 0}
[INFO ][2023-06-16 17:06:02][3974] (EastmoneyDatacenterWebApiDataRobot) -------- (增量)下载结束</eastmoney_stock_rzrq_json> --------
[INFO ][2023-06-16 17:06:02][3974] (EastmoneyDatacenterWebApiDataRobot) -------- <eastmoney_stock_hsgthdsta_json>(增量)下载开始 --------
[INFO ][2023-06-16 17:07:10][3974] (EastmoneyDatacenterWebApiDataRobot) {共计应下载数: 2544, 本次应下载数: 2544, 下载失败数: 0}
[INFO ][2023-06-16 17:07:10][3974] (EastmoneyDatacenterWebApiDataRobot) -------- (增量)下载结束</eastmoney_stock_hsgthdsta_json> --------
[INFO ][2023-06-16 17:07:10][3974] (EastmoneyDatacenterWebApiDataRobot) -------- <eastmoney_stock_hsgtcjb_json>(增量)下载开始 --------
[INFO ][2023-06-16 17:08:18][3974] (EastmoneyDatacenterWebApiDataRobot) {共计应下载数: 2544, 本次应下载数: 2544, 下载失败数: 0}
[INFO ][2023-06-16 17:08:18][3974] (EastmoneyDatacenterWebApiDataRobot) -------- (增量)下载结束</eastmoney_stock_hsgtcjb_json> --------
[INFO ][2023-06-16 17:08:18][3974] (EastmoneyDatacenterWebApiDataRobot) -------- <eastmoney_stock_ggthdsta_json>(增量)下载开始 --------
[INFO ][2023-06-16 17:08:37][3974] (EastmoneyDatacenterWebApiDataRobot) {共计应下载数: 562, 本次应下载数: 562, 下载失败数: 0}
[INFO ][2023-06-16 17:08:37][3974] (EastmoneyDatacenterWebApiDataRobot) -------- (增量)下载结束</eastmoney_stock_ggthdsta_json> --------
[INFO ][2023-06-16 17:08:37][3974] (EastmoneyDatacenterWebApiDataRobot) -------- <eastmoney_stock_dzjy_daystats_json>(增量)下载开始 --------
[INFO ][2023-06-16 17:10:22][3974] (EastmoneyDatacenterWebApiDataRobot) {共计应下载数: 4944, 本次应下载数: 4944, 下载失败数: 0}
[INFO ][2023-06-16 17:10:22][3974] (EastmoneyDatacenterWebApiDataRobot) -------- (增量)下载结束</eastmoney_stock_dzjy_daystats_json> --------
[INFO ][2023-06-16 17:10:22][3974] (EastmoneyStockCapitalFlowDataRobot) -------- <eastmoney>(增量)下载资金流向历史数据开始 --------
[INFO ][2023-06-16 17:12:22][3974] (EastmoneyStockCapitalFlowDataRobot) 共计应下载数: 4945, 本次应下载数: 4945, 下载失败数: 65}
[INFO ][2023-06-16 17:12:22][3974] (EastmoneyStockCapitalFlowDataRobot) -------- 下载资金流向历史数据结束</eastmoney> --------
[INFO ][2023-06-16 17:12:22][3974] (SwsindexDayDataRobot) -------- <swsindex>(增量)下载申万行业日线数据开始 --------
[INFO ][2023-06-16 17:12:22][3974] (SwsindexDayDataRobot) -------- 下载申万行业日线数据结束</swsindex> --------
[INFO ][2023-06-16 17:12:22][3974] (SohuStockDayDataRobot) -------- <sohu>下载日线数据开始 --------
[INFO ][2023-06-16 17:12:30][3974] (SohuStockDayDataRobot) {股票数: 4944, 本次应下载数: 185, 更新失败数: 0}
[INFO ][2023-06-16 17:12:30][3974] (SohuStockDayDataRobot) -------- 下载日线数据结束</sohu> --------
[INFO ][2023-06-16 17:12:30][3974] (EastmoneyStockCapitalFlowDataRobot) -------- <eastmoney>(增量)下载资金流向历史数据开始 --------
[INFO ][2023-06-16 17:12:32][3974] (EastmoneyStockCapitalFlowDataRobot) 共计应下载数: 4945, 本次应下载数: 238, 下载失败数: 0}
[INFO ][2023-06-16 17:12:32][3974] (EastmoneyStockCapitalFlowDataRobot) -------- 下载资金流向历史数据结束</eastmoney> --------
[INFO ][2023-06-16 17:12:32][3974] (DiffWindMain$4) EOD数据源下载状态: {sina_stock_corp_info=-9999, sina_swhy2_stock=-9999, sina_stock_xq_info=-9999, netease_stock_day=-9999, netease_stock_zcfzb_json=-9999, netease_stock_lrb_json=-9999, netease_stock_xjllb_json=-9999, netease_stock_zycwzb_json=-9999, netease_stock_fhpg=-9999, netease_stock_cjmx=-9999, netease_stock_day_html=-9999, sohu_stock_day_1y=0, swsindex_hangye_day=0, xueqiu_stock_shareschg_json=-9999, xueqiu_stock_main_indicator_json=-9999, xueqiu_stock_income_statement_json=-9999, xueqiu_stock_balance_sheet_json=-9999, xueqiu_stock_cashflow_statement_json=-9999, xueqiu_stock_bonus_json=-9999, eastmoney_market_rzrq_json=0, eastmoney_market_hsgthis_json=0, eastmoney_stock_rzrq_json=0, eastmoney_stock_hsgthdsta_json=0, eastmoney_stock_ggthdsta_json=0, eastmoney_stock_hsgtcjb_json=0, eastmoney_stock_gpzy_json=-9999, eastmoney_stock_dzjy_daystats_json=0, eastmoney_stock_gdhs_json=-9999, eastmoney_stock_fhsp_json=-9999, eastmoney_stock_capitalflow_json=0, ths_stock_bonus_json=-9999}
[INFO ][2023-06-16 17:12:32][3974] (SourceDataETL) -------- <sohu>转存sohu日线数据至中间表开始 --------
[INFO ][2023-06-16 17:12:52][3974] (SourceDataETL) -------- 转存sohu日线数据至中间表结束</sohu> --------
[INFO ][2023-06-16 17:12:52][3974] (DayDataFQ) -------- <dw>日线数据前复权开始 --------
[INFO ][2023-06-16 17:13:33][3974] (DayDataFQ) -------- 日线数据前复权结束</dw> --------
[INFO ][2023-06-16 20:00:01][5177] (EastmoneyDatacenterWebApiDataRobot) -------- <eastmoney_market_rzrq_json>(增量)下载开始 --------
[INFO ][2023-06-16 20:00:01][5177] (EastmoneyDatacenterWebApiDataRobot) {共计应下载数: 2, 本次应下载数: 2, 下载失败数: 0}
[INFO ][2023-06-16 20:00:01][5177] (EastmoneyDatacenterWebApiDataRobot) -------- (增量)下载结束</eastmoney_market_rzrq_json> --------
[INFO ][2023-06-16 20:00:01][5177] (EastmoneyDatacenterWebApiDataRobot) -------- <eastmoney_market_hsgthis_json>(增量)下载开始 --------
[INFO ][2023-06-16 20:00:01][5177] (EastmoneyDatacenterWebApiDataRobot) {共计应下载数: 4, 本次应下载数: 4, 下载失败数: 0}
[INFO ][2023-06-16 20:00:01][5177] (EastmoneyDatacenterWebApiDataRobot) -------- (增量)下载结束</eastmoney_market_hsgthis_json> --------
[INFO ][2023-06-16 20:00:01][5177] (EastmoneyDatacenterWebApiDataRobot) -------- <eastmoney_stock_rzrq_json>(增量)下载开始 --------
[INFO ][2023-06-16 20:01:23][5177] (EastmoneyDatacenterWebApiDataRobot) {共计应下载数: 3247, 本次应下载数: 3247, 下载失败数: 0}
[INFO ][2023-06-16 20:01:23][5177] (EastmoneyDatacenterWebApiDataRobot) -------- (增量)下载结束</eastmoney_stock_rzrq_json> --------
[INFO ][2023-06-16 20:01:23][5177] (EastmoneyDatacenterWebApiDataRobot) -------- <eastmoney_stock_hsgthdsta_json>(增量)下载开始 --------
[INFO ][2023-06-16 20:02:36][5177] (EastmoneyDatacenterWebApiDataRobot) {共计应下载数: 2544, 本次应下载数: 2544, 下载失败数: 0}
[INFO ][2023-06-16 20:02:36][5177] (EastmoneyDatacenterWebApiDataRobot) -------- (增量)下载结束</eastmoney_stock_hsgthdsta_json> --------
[INFO ][2023-06-16 20:02:36][5177] (EastmoneyDatacenterWebApiDataRobot) -------- <eastmoney_stock_hsgtcjb_json>(增量)下载开始 --------
[INFO ][2023-06-16 20:03:55][5177] (EastmoneyDatacenterWebApiDataRobot) {共计应下载数: 2544, 本次应下载数: 2544, 下载失败数: 0}
[INFO ][2023-06-16 20:03:55][5177] (EastmoneyDatacenterWebApiDataRobot) -------- (增量)下载结束</eastmoney_stock_hsgtcjb_json> --------
[INFO ][2023-06-16 20:03:55][5177] (EastmoneyDatacenterWebApiDataRobot) -------- <eastmoney_stock_ggthdsta_json>(增量)下载开始 --------
[INFO ][2023-06-16 20:04:06][5177] (EastmoneyDatacenterWebApiDataRobot) {共计应下载数: 562, 本次应下载数: 562, 下载失败数: 0}
[INFO ][2023-06-16 20:04:06][5177] (EastmoneyDatacenterWebApiDataRobot) -------- (增量)下载结束</eastmoney_stock_ggthdsta_json> --------
[INFO ][2023-06-16 20:04:06][5177] (SwsindexDayDataRobot) -------- <swsindex>(增量)下载申万行业日线数据开始 --------
[INFO ][2023-06-16 20:04:06][5177] (SwsindexDayDataRobot) -------- 下载申万行业日线数据结束</swsindex> --------
[INFO ][2023-06-16 20:04:06][5177] (DiffWindMain$4) EOD数据源下载状态: {sina_stock_corp_info=-9999, sina_swhy2_stock=-9999, sina_stock_xq_info=-9999, netease_stock_day=-9999, netease_stock_zcfzb_json=-9999, netease_stock_lrb_json=-9999, netease_stock_xjllb_json=-9999, netease_stock_zycwzb_json=-9999, netease_stock_fhpg=-9999, netease_stock_cjmx=-9999, netease_stock_day_html=-9999, sohu_stock_day_1y=0, swsindex_hangye_day=0, xueqiu_stock_shareschg_json=-9999, xueqiu_stock_main_indicator_json=-9999, xueqiu_stock_income_statement_json=-9999, xueqiu_stock_balance_sheet_json=-9999, xueqiu_stock_cashflow_statement_json=-9999, xueqiu_stock_bonus_json=-9999, eastmoney_market_rzrq_json=0, eastmoney_market_hsgthis_json=0, eastmoney_stock_rzrq_json=0, eastmoney_stock_hsgthdsta_json=0, eastmoney_stock_ggthdsta_json=0, eastmoney_stock_hsgtcjb_json=0, eastmoney_stock_gpzy_json=-9999, eastmoney_stock_dzjy_daystats_json=0, eastmoney_stock_gdhs_json=-9999, eastmoney_stock_fhsp_json=-9999, eastmoney_stock_capitalflow_json=0, ths_stock_bonus_json=-9999}
[INFO ][2023-06-16 20:04:06][5177] (SourceDataETL) -------- <sohu>转存sohu日线数据至中间表开始 --------
[INFO ][2023-06-16 20:04:24][5177] (SourceDataETL) -------- 转存sohu日线数据至中间表结束</sohu> --------
[INFO ][2023-06-16 20:04:24][5177] (DayDataFQ) -------- <dw>日线数据前复权开始 --------
[INFO ][2023-06-16 20:05:07][5177] (DayDataFQ) -------- 日线数据前复权结束</dw> --------
